1.5774e-21,2.2329e-21,0.0034474,0.012884,0.021723,0.033423,0.046203,0.027028,0.023645,0.014445,0.0077101,0.0030197,1.8944e-21,4.9087e-05,0.0029416,0.015068,0.017221,0.014917,0.00085613,1.5774e-21,1.608e-21,1.5774e-21,1.8338e-21,1.5774e-21,1.7981e-21,1.5774e-21,2.1318e-21,1.5815e-21,1.5774e-21,1.5774e-21,9.2389e-21,1.5774e-21,0.0018183,0.0056986,0.0033507,0.010362,0.01256,0.022642,0.031247,0.037903,0.04434,0.039054,0.022033,0.018132,0.01858,0.0015933,1.6315e-21,2.2054e-21,1.5797e-21,0.01114,1.589e-21,1.5774e-21,1.7212e-21,0.0070613,0.0062396,0.0040755,0.0037973,0.00053046,1.6481e-21,1.6534e-21,4.0982e-20,2.3908e-21,1.5774e-21
0.0058821,0.0055925,0.019029,0.039558,0.058055,0.081866,0.10777,0.082315,0.078426,0.063803,0.051555,0.041293,0.03212,0.027737,0.027589,0.042071,0.041849,0.03571,0.010575,1.6379e-21,1.5888e-21,1.5774e-21,1.5774e-21,0.00062165,1.5774e-21,1.5774e-21,1.6602e-21,2.5506e-21,1.5774e-21,2.8591e-21,1.5774e-21,1.5774e-21,1.8074e-21,2.0909e-21,1.7475e-21,2.2339e-21,2.8473e-21,1.6298e-21,1.7235e-21,1.7619e-21,1.7623e-21,1.5774e-21,1.6899e-21,1.6384e-21,1.8887e-21,0.0086801,1.702e-21,1.5774e-21,0.0069992,1.5774e-21,1.5822e-21,1.7125e-21,1.5861e-21,1.5774e-21,1.5774e-21,1.6213e-21,1.6244e-21,0.0011695,1.6241e-21,1.6752e-21,1.5774e-21,1.5774e-21,1.5774e-21
0.053093,0.067394,0.10925,0.16454,0.21141,0.26647,0.32458,0.32928,0.33644,0.32458,0.30519,0.27925,0.24575,0.21152,0.181,0.16811,0.14544,0.11979,0.062705,0.019056,0.0052734,0.0010325,1.5917e-21,1.5774e-21,1.5774e-21,1.5807e-21,1.6439e-21,1.7838e-21,1.955e-21,2.1057e-21,1.8313e-21,2.7691e-21,2.2287e-21,1.7323e-21,1.7647e-21,1.5774e-21,1.9106e-21,1.5888e-21,1.6401e-21,1.6181e-21,1.578e-21,1.6657e-21,1.5774e-21,1.6006e-21,1.676e-21,1.5774e-21,0.0038397,0.0035691,0.0004256,1.584e-21,1.5852e-21,1.5774e-21,1.5799e-21,1.6247e-21,1.6231e-21,1.5866e-21,1.6468e-21,1.5797e-21,1.5788e-21,1.5781e-21,1.5774e-21,1.6936e-21,1.5774e-21
0.21011,0.24893,0.28121,0.3069,0.32566,0.32998,0.32947,0.35668,0.37718,0.39385,0.39682,0.38579,0.36075,0.32094,0.27574,0.21745,0.18058,0.17098,0.17118,0.1616,0.13541,0.082476,0.025828,0.015333,0.045253,0.088368,0.13408,0.17824,0.21109,0.26097,0.35771,0.42163,0.44632,0.43996,0.39832,0.32028,0.21864,0.10256,0.017816,1.6164e-21,1.5814e-21,1.5774e-21,1.5774e-21,1.5908e-21,1.5774e-21,1.5854e-21,0.21814,0.2811,0.14135,1.5823e-21,1.6225e-21,1.6112e-21,1.5824e-21,1.6618e-21,1.5996e-21,1.5777e-21,0.012825,0.077468,0.16948,0.3891,0.64217,0.85752,0.98763
0.21961,0.24586,0.25562,0.25466,0.25043,0.22849,0.20036,0.19391,0.20313,0.21492,0.22177,0.2207,0.21273,0.19617,0.17985,0.15698,0.14578,0.15474,0.17806,0.18512,0.17036,0.12926,0.0807,0.069803,0.088363,0.1435,0.20552,0.26928,0.32224,0.38403,0.47584,0.51515,0.55464,0.56338,0.53702,0.47377,0.38705,0.28573,0.22698,0.11163,0.016041,1.5774e-21,1.7055e-21,1.6454e-21,1.5774e-21,0.050908,0.24556,0.30278,0.19032,1.5906e-21,1.5774e-21,0.022364,0.010267,1.6719e-21,0.031707,0.1305,0.18129,0.18115,0.17218,0.21615,0.33971,0.4663,0.58099
0.1706,0.1838,0.17776,0.1607,0.14326,0.11193,0.0756,0.051233,0.050746,0.055188,0.061102,0.065164,0.06844,0.069179,0.072876,0.075662,0.081269,0.097164,0.12478,0.13819,0.1345,0.11462,0.086199,0.079479,0.087447,0.13437,0.18927,0.24834,0.30077,0.35536,0.42371,0.44322,0.48619,0.5044,0.4939,0.45403,0.3968,0.33009,0.30308,0.24597,0.19212,0.12638,0.058436,1.6319e-21,0.0042234,0.10597,0.20018,0.24014,0.17323,0.018018,0.030904,0.041518,0.048324,0.059729,0.13515,0.20446,0.21213,0.17793,0.11731,0.051952,0.058454,0.063147,0.047842
0.10049,0.11064,0.10807,0.097736,0.086669,0.066741,0.043659,0.029565,0.030045,0.033266,0.036912,0.039249,0.040823,0.040751,0.041953,0.041632,0.043486,0.055513,0.075396,0.08524,0.084484,0.078182,0.058362,0.053908,0.058358,0.084317,0.11312,0.14191,0.16521,0.18704,0.20991,0.18903,0.20076,0.20035,0.18688,0.16147,0.13169,0.10032,0.10688,0.084314,0.057654,0.01989,1.7021e-21,1.7104e-21,2.2239e-21,0.079282,0.15965,0.18643,0.13077,0.0027971,0.0037908,0.012216,0.014603,0.014993,0.05633,0.10274,0.11259,0.097425,0.069946,0.055889,0.079054,0.10248,0.12073
0.083049,0.092466,0.090223,0.080721,0.070365,0.052754,0.032521,0.020738,0.021146,0.023719,0.026512,0.028295,0.029486,0.0295,0.030451,0.029821,0.031175,0.042845,0.061604,0.071247,0.071905,0.071021,0.053872,0.049771,0.05232,0.072885,0.095004,0.11596,0.13169,0.14443,0.15308,0.11731,0.11992,0.11448,0.10121,0.081546,0.061306,0.041372,0.060479,0.049832,0.031424,0.0017809,1.9907e-21,1.5774e-21,1.7707e-21,0.079824,0.15794,0.18225,0.12772,0.00035056,1.6743e-21,0.0050113,0.0065172,0.004624,0.038231,0.080018,0.089899,0.078634,0.058273,0.057513,0.086318,0.11681,0.14794
0.075678,0.085759,0.084225,0.075269,0.065122,0.048557,0.029637,0.019942,0.020656,0.023026,0.025128,0.026178,0.026537,0.025879,0.025906,0.023966,0.024453,0.036881,0.056675,0.06717,0.069,0.071999,0.054816,0.050464,0.051833,0.069353,0.087221,0.10251,0.11217,0.11719,0.11307,0.05899,0.052142,0.040538,0.025563,0.0091253,2.4245e-21,1.6388e-21,0.017943,0.01636,0.0029176,2.2416e-21,1.5774e-21,1.8651e-21,1.6856e-21,0.08797,0.17634,0.2017,0.14062,1.5774e-21,1.8122e-21,1.5774e-21,1.6359e-21,1.6111e-21,0.023717,0.066944,0.07915,0.071055,0.056505,0.07212,0.11407,0.15978,0.22906
0.055683,0.064385,0.063798,0.057101,0.049218,0.036775,0.022286,0.015752,0.016726,0.018656,0.020008,0.020452,0.020203,0.019172,0.01838,0.015645,0.015155,0.025859,0.042511,0.051452,0.053754,0.059135,0.044795,0.041406,0.042484,0.054816,0.06645,0.074855,0.078222,0.076508,0.063653,0.0063357,1.5774e-21,2.4559e-21,1.8123e-21,2.672e-21,2.1396e-21,1.7239e-21,1.8536e-21,1.6404e-21,1.9593e-21,1.5774e-21,1.6371e-21,1.5774e-21,3.1384e-21,0.076604,0.15594,0.1774,0.12292,1.5959e-21,1.5776e-21,1.6831e-21,1.6262e-21,1.5774e-21,0.007846,0.043986,0.055719,0.0516,0.04404,0.068182,0.11133,0.16026,0.21374
0.043822,0.052261,0.052467,0.047089,0.0403,0.030249,0.018595,0.014826,0.01606,0.017776,0.018534,0.018397,0.017484,0.015921,0.014293,0.010429,0.0090782,0.019839,0.03636,0.045394,0.048545,0.057139,0.043071,0.04017,0.041484,0.05134,0.059417,0.063171,0.061581,0.053651,0.03096,2.7011e-20,2.4273e-21,2.2179e-21,3.4694e-21,1.5774e-21,2.5639e-21,1.6325e-21,1.7239e-21,1.7084e-21,1.6943e-21,3.4569e-21,1.6094e-21,1.5774e-21,2.2602e-21,0.079569,0.16366,0.18515,0.1278,1.5774e-21,1.759e-21,1.7266e-21,1.671e-21,2.0226e-21,1.5774e-21,0.030648,0.044273,0.043387,0.04148,0.079638,0.1348,0.19724,0.27248
0.031101,0.038479,0.03902,0.0348,0.029428,0.021398,0.012343,0.009866,0.011273,0.012679,0.013079,0.012783,0.011769,0.010258,0.0083283,0.0044278,0.0025402,0.011295,0.024103,0.031171,0.034297,0.043387,0.032447,0.030446,0.031483,0.037311,0.041,0.040536,0.035701,0.025047,0.00029221,4.9003e-21,1.5774e-21,2.2911e-21,1.7452e-21,1.5774e-21,1.7287e-21,1.6326e-21,1.6614e-21,2.1102e-21,2.0512e-21,1.5774e-21,1.5774e-21,1.7226e-21,1.5774e-21,0.065041,0.13552,0.15278,0.10499,1.5919e-21,1.5774e-21,1.5774e-21,1.5913e-21,1.5774e-21,1.5774e-21,0.01411,0.025585,0.02664,0.028289,0.065661,0.11385,0.16865,0.25195
0.019516,0.025855,0.026987,0.024356,0.020411,0.015436,0.0096856,0.010005,0.011348,0.01245,0.012337,0.011529,0.010025,0.008173,0.0059257,0.0016071,1.5894e-21,0.0078092,0.020374,0.027593,0.031003,0.040663,0.030543,0.028378,0.02873,0.033073,0.035089,0.032795,0.026326,0.013866,1.5774e-21,1.5774e-21,1.5774e-21,2.832e-21,2.0478e-21,2.6822e-21,2.0308e-21,1.6715e-21,2.0766e-21,1.726e-21,1.9791e-21,1.5774e-21,1.5774e-21,1.9603e-21,2.0519e-21,0.065659,0.1373,0.15452,0.10603,1.5774e-21,2.0571e-21,1.5774e-21,1.5921e-21,1.6201e-21,1.6452e-21,0.0095568,0.021934,0.024509,0.02998,0.078654,0.13704,0.20385,0.29438
0.0083215,0.011457,0.012114,0.010953,0.0091231,0.0069114,0.0043531,0.0047853,0.0054895,0.0060175,0.005903,0.0054473,0.0046354,0.0036651,0.0024632,0.00020434,1.617e-21,0.003182,0.0093822,0.01298,0.014766,0.019843,0.014895,0.013839,0.013962,0.015827,0.016456,0.014868,0.011209,0.0044925,1.5774e-21,1.5774e-21,1.5774e-21,1.5774e-21,5.3155e-21,2.4336e-21,3.0291e-21,1.8281e-21,2.4106e-21,1.6997e-21,2.7939e-21,5.9045e-21,2.1429e-21,1.5774e-21,3.0277e-21,0.032882,0.069141,0.077819,0.05327,1.5774e-21,1.5774e-21,2.089e-21,1.7966e-21,2.3984e-21,1.5774e-21,0.0035314,0.0097798,0.0113,0.01461,0.040538,0.071102,0.10634,0.16241
0.0086159,0.013215,0.014433,0.013106,0.010714,0.0081346,0.0051439,0.0065048,0.0076486,0.0083803,0.0080579,0.0072332,0.0058595,0.0042813,0.0022548,1.647e-21,1.6442e-21,0.0026659,0.011677,0.016994,0.019896,0.028232,0.021156,0.019675,0.019735,0.021628,0.021457,0.017788,0.011073,1.5774e-21,1.5774e-21,1.5774e-21,1.5774e-21,2.3592e-21,2.5804e-21,1.5774e-21,1.5774e-21,1.7703e-21,2.9306e-21,1.6063e-21,1.6658e-21,2.6466e-21,1.6967e-21,1.8602e-21,2.1391e-21,0.049384,0.10463,0.1176,0.080423,1.6057e-21,1.7807e-21,1.5774e-21,1.6897e-21,1.5817e-21,1.5826e-21,0.00070075,0.010341,0.013518,0.020464,0.064239,0.11348,0.17009,0.24253
0.0053591,0.0098442,0.011291,0.010279,0.0082277,0.0062235,0.003953,0.0058732,0.0070865,0.0077722,0.0073295,0.0064014,0.0049121,0.0032414,0.001033,1.5819e-21,1.6381e-21,0.00087285,0.0095961,0.014825,0.017929,0.026862,0.020088,0.018724,0.018727,0.019883,0.018808,0.01411,0.0064281,3.648e-21,4.5536e-21,1.5774e-21,1.5774e-21,4.3972e-21,3.0388e-21,2.4304e-21,2.6762e-21,1.7976e-21,1.6455e-21,1.5774e-21,2.0985e-21,1.5774e-21,1.6654e-21,2.1562e-21,2.4286e-21,0.049395,0.10534,0.11828,0.080792,1.6217e-21,1.6516e-21,1.5774e-21,1.6882e-21,1.5774e-21,1.6759e-21,2.8122e-21,0.0062291,0.010178,0.018908,0.066859,0.11887,0.17841,0.2723
0.0093501,0.0064016,0.0053764,0.0062466,0.0078696,0.0098786,0.012144,0.013151,0.01408,0.015813,0.017949,0.019699,0.020866,0.020868,0.020512,0.020144,0.019734,0.015573,0.0099008,0.00626,0.0032787,0.0064777,0.0093124,0.0082699,0.0075855,0.020947,0.039004,0.06163,0.085077,0.11205,0.15058,0.19333,0.22648,0.2491,0.25737,0.24956,0.22904,0.20184,0.169,0.14608,0.13108,0.12225,0.11057,0.084039,0.04486,1.5818e-21,1.5774e-21,2.666e-21,1.782e-21,0.014397,0.032277,0.030137,0.031727,0.041715,0.050865,0.046909,0.038195,0.026225,0.0051708,1.5774e-21,5.2621e-21,2.5936e-21,1.5774e-21
0.0092041,0.0046854,0.0032334,0.0046228,0.0070562,0.01022,0.013801,0.01531,0.016408,0.018623,0.021477,0.023903,0.025644,0.025909,0.025738,0.025668,0.025368,0.019515,0.011544,0.0065468,0.0026145,0.0070876,0.011668,0.010179,0.0085156,0.025561,0.048835,0.078217,0.10885,0.14416,0.19471,0.25199,0.29516,0.32477,0.33601,0.32668,0.30096,0.2664,0.22249,0.19271,0.17365,0.16331,0.14932,0.11522,0.061476,1.5774e-21,1.8062e-21,1.5774e-21,1.6049e-21,0.020244,0.043542,0.039876,0.042789,0.058132,0.069882,0.061913,0.04896,0.032727,0.0042095,1.6066e-21,3.1391e-20,2.0289e-21,1.5774e-21
0.01797,0.0079477,0.003798,0.0052621,0.0090652,0.013996,0.019698,0.020589,0.022039,0.026146,0.032108,0.03763,0.042237,0.044286,0.045797,0.047929,0.048879,0.037814,0.022631,0.013107,0.0053802,0.013062,0.022837,0.019619,0.014995,0.047382,0.091923,0.14837,0.20723,0.27487,0.37092,0.4792,0.55523,0.60593,0.62537,0.61094,0.56862,0.5095,0.42793,0.37229,0.33705,0.31895,0.2941,0.2298,0.12235,1.5774e-21,1.5774e-21,1.7657e-21,1.6107e-21,0.042208,0.087529,0.079007,0.086602,0.12156,0.14662,0.12839,0.1006,0.066671,0.0062214,1.5976e-21,1.5774e-21,1.5774e-21,1.5774e-21
0.021973,0.011524,0.0060522,0.0057103,0.0080361,0.010524,0.013431,0.010735,0.011316,0.014932,0.02108,0.027185,0.032866,0.03639,0.0398,0.044542,0.04716,0.037248,0.023125,0.014204,0.0069413,0.011226,0.020584,0.018641,0.016054,0.047714,0.090989,0.14587,0.20313,0.26878,0.36234,0.4706,0.54623,0.59729,0.6177,0.6047,0.56418,0.50721,0.42543,0.37221,0.33952,0.32528,0.30447,0.24325,0.13149,1.5915e-21,1.6298e-21,1.5774e-21,1.5982e-21,0.046313,0.090115,0.079264,0.089481,0.1314,0.15879,0.1371,0.10511,0.067723,0.00042324,1.5871e-21,1.5774e-21,1.5774e-21,1.5774e-21
0.051818,0.044289,0.034833,0.026319,0.019763,0.011914,0.0039544,1.5774e-21,1.6175e-21,1.5774e-21,1.5921e-21,0.003053,0.0095925,0.01574,0.024118,0.033918,0.042235,0.040363,0.040935,0.041033,0.035562,0.031171,0.034979,0.027521,0.016289,0.041444,0.077191,0.1229,0.17105,0.22805,0.31077,0.40044,0.46167,0.5024,0.5164,0.50095,0.46328,0.41268,0.34605,0.29438,0.26023,0.23534,0.2058,0.15175,0.077976,1.5897e-21,1.5774e-21,1.5774e-21,1.6117e-21,0.041179,0.071395,0.066403,0.078535,0.11423,0.16467,0.17653,0.1585,0.1204,0.056767,1.5774e-21,4.7278e-21,1.7146e-21,9.1716e-20
0.088967,0.086067,0.073812,0.057782,0.043982,0.023614,0.0013238,1.5774e-21,1.7637e-21,1.8774e-21,1.5774e-21,1.6231e-21,1.6052e-21,0.0047972,0.016724,0.031025,0.042495,0.048232,0.057807,0.062345,0.058678,0.045147,0.040542,0.036215,0.03364,0.06006,0.094464,0.13606,0.17773,0.22501,0.292,0.35773,0.40879,0.44197,0.45183,0.43609,0.40202,0.35773,0.30731,0.26599,0.23739,0.21525,0.1889,0.14331,0.081839,0.023051,1.5774e-21,2.0476e-21,0.0051885,0.044807,0.069429,0.063767,0.079727,0.12347,0.18553,0.20606,0.18489,0.13888,0.060141,1.5927e-21,2.1294e-20,1.7863e-21,1.5774e-21
0.076589,0.065276,0.04714,0.02762,0.011436,1.6446e-21,1.5774e-21,1.7333e-21,1.6148e-21,1.5774e-21,1.5774e-21,1.7063e-21,1.6029e-21,1.6e-21,0.0097211,0.032745,0.050876,0.056407,0.068003,0.07381,0.06786,0.059695,0.061279,0.047716,0.02474,0.050885,0.088229,0.13559,0.18509,0.2448,0.33364,0.42858,0.48927,0.52865,0.54039,0.52164,0.48081,0.42688,0.35773,0.29957,0.26058,0.22851,0.19315,0.1388,0.075197,0.022609,1.5774e-21,1.7933e-21,1.5839e-21,0.052958,0.079434,0.072961,0.094747,0.15136,0.23076,0.25397,0.22923,0.17468,0.083123,1.5938e-21,1.5774e-21,1.7004e-21,1.5774e-21
0.08002,0.067518,0.045909,0.021546,0.001048,1.5774e-21,1.5774e-21,1.5774e-21,1.674e-21,1.5774e-21,1.5774e-21,1.5931e-21,1.5774e-21,1.5774e-21,2.1598e-21,0.025144,0.047387,0.057336,0.074801,0.083923,0.079238,0.073275,0.074105,0.058246,0.029628,0.053346,0.087089,0.12927,0.1727,0.22453,0.30141,0.38082,0.43168,0.4641,0.47229,0.45371,0.41711,0.37025,0.31318,0.26396,0.23072,0.2027,0.1726,0.1289,0.078115,0.042269,1.5774e-21,0.0014529,0.018211,0.057041,0.076484,0.068196,0.094743,0.16096,0.24902,0.27427,0.24582,0.18594,0.085654,1.5849e-21,1.7697e-20,1.7916e-21,1.5774e-21
0.077725,0.065169,0.042287,0.015763,1.9056e-21,1.5807e-21,1.6903e-21,1.7325e-21,1.6109e-21,1.789e-21,1.7123e-21,1.688e-21,1.6571e-21,2.032e-21,1.5774e-21,0.019032,0.042462,0.05493,0.075653,0.086736,0.083415,0.086188,0.087793,0.069197,0.033281,0.054442,0.084572,0.12151,0.15886,0.20245,0.26571,0.32598,0.36593,0.39026,0.39414,0.37569,0.34365,0.30438,0.26179,0.22296,0.19579,0.17179,0.14658,0.113,0.077605,0.061919,0.021625,0.032485,0.04002,0.054854,0.067177,0.058651,0.08602,0.15249,0.24042,0.26759,0.2399,0.18127,0.083234,1.5774e-21,1.5774e-21,1.5774e-21,5.0302e-19
0.036661,0.016349,1.65e-21,1.6236e-21,1.9332e-21,1.5774e-21,1.5774e-21,1.5774e-21,1.7147e-21,2.1824e-21,1.5774e-21,1.7397e-21,1.6396e-21,1.6292e-21,1.5774e-21,0.0046785,0.033837,0.046669,0.069253,0.082172,0.079242,0.092379,0.10219,0.075772,0.01894,0.031007,0.051896,0.079056,0.10759,0.14249,0.19593,0.25442,0.28186,0.29861,0.30079,0.2868,0.26459,0.23816,0.19903,0.16736,0.14822,0.13317,0.11932,0.10107,0.074794,0.059274,1.5878e-21,1.5774e-21,0.017434,0.061503,0.065809,0.05294,0.087844,0.17016,0.26402,0.28067,0.24562,0.18298,0.081857,1.5858e-21,2.4148e-20,1.5973e-21,2.2839e-21
0.0091004,1.5774e-21,1.5774e-21,1.594e-21,1.5774e-21,1.6006e-21,5.0132e-21,1.6226e-21,1.5886e-21,1.5774e-21,1.6699e-21,1.6489e-21,1.6442e-21,1.7724e-21,2.2406e-21,1.5932e-21,0.016583,0.026656,0.044923,0.056023,0.055239,0.068641,0.077669,0.056516,0.0097154,0.013547,0.022759,0.035217,0.048503,0.064667,0.089157,0.11507,0.12197,0.12521,0.12361,0.11673,0.10941,0.10207,0.086467,0.074136,0.067576,0.062627,0.059599,0.057941,0.049836,0.049792,0.0057064,0.0086491,0.019691,0.043827,0.039338,0.028894,0.055853,0.11719,0.18459,0.1948,0.16889,0.12522,0.057887,1.6153e-21,2.1367e-20,1.5774e-21,5.933e-21
0.19393,0.17536,0.1682,0.15371,0.12514,0.090962,0.057354,0.01835,0.019497,0.026682,0.041177,0.05512,0.068073,0.077146,0.084328,0.094705,0.09716,0.10275,0.098977,0.091371,0.085871,0.088996,0.06662,0.084632,0.13596,0.21696,0.3065,0.40264,0.48799,0.56945,0.66549,0.73295,0.81753,0.86296,0.87217,0.846,0.78571,0.70022,0.64125,0.59428,0.55063,0.52125,0.47653,0.38173,0.26034,0.12175,0.093174,0.11146,0.10515,0.045883,0.096251,0.090071,0.089192,0.11604,0.1683,0.22005,0.20036,0.14247,0.0048935,1.5817e-21,1.5774e-21,1.5774e-21,1.9949e-18
0.11589,0.095015,0.092987,0.08651,0.068973,0.053337,0.037439,0.013669,0.017969,0.023492,0.035262,0.046817,0.054533,0.0606,0.062034,0.064654,0.060806,0.059579,0.043511,0.028863,0.022976,0.033898,0.022092,0.039116,0.080488,0.13451,0.19529,0.26441,0.33104,0.40264,0.49945,0.59394,0.68589,0.74093,0.75599,0.7307,0.66842,0.58285,0.5155,0.46636,0.42523,0.39892,0.35941,0.27438,0.17816,0.059673,0.022965,0.029865,0.032274,0.012805,0.062992,0.063559,0.048622,0.041587,0.044013,0.067923,0.058884,0.032142,1.5872e-21,1.5941e-21,1.5774e-21,1.718e-21,2.9432e-18
0.1272,0.13273,0.12112,0.103,0.09168,0.071437,0.04944,0.025734,0.033281,0.041401,0.05084,0.059648,0.065375,0.065755,0.060094,0.053843,0.043112,0.044295,0.028683,0.013602,0.010052,0.025962,0.0092485,0.030415,0.0807,0.12817,0.17872,0.23417,0.28629,0.34114,0.41499,0.4826,0.57083,0.62654,0.64356,0.6202,0.5598,0.47803,0.42882,0.38987,0.35312,0.32691,0.28766,0.20977,0.13964,0.059355,0.057437,0.067063,0.050569,1.6064e-21,0.033927,0.040121,0.014036,1.6878e-21,1.5774e-21,1.5774e-21,1.6194e-21,1.5991e-21,1.5839e-21,1.6215e-21,1.5774e-21,1.5774e-21,2.503e-18
0.089778,0.10374,0.11372,0.12285,0.13472,0.14138,0.14775,0.1563,0.17233,0.18335,0.18806,0.18707,0.17719,0.15733,0.12693,0.091083,0.058736,0.037414,1.6019e-21,1.587e-21,1.5882e-21,0.0056371,0.0092593,0.014932,0.026326,0.062031,0.10407,0.1536,0.203,0.26402,0.36123,0.47784,0.56646,0.61795,0.6269,0.59242,0.51655,0.41723,0.32629,0.25479,0.20298,0.16257,0.11327,0.030507,0.0028418,1.5774e-21,1.5774e-21,1.5774e-21,1.6006e-21,1.5774e-21,1.5788e-21,0.010112,1.589e-21,1.5774e-21,1.5774e-21,1.7505e-21,1.5932e-21,1.6125e-21,1.6424e-21,1.6485e-21,1.5774e-21,1.845e-21,1.5774e-21
0.0906,0.11089,0.1295,0.14792,0.16753,0.18301,0.19879,0.21961,0.23933,0.25088,0.25232,0.24571,0.22742,0.19711,0.15384,0.10297,0.059364,0.029823,1.5774e-21,1.5807e-21,1.5885e-21,0.00074397,0.011292,0.012889,0.011779,0.041971,0.07813,0.121,0.16404,0.21923,0.31045,0.42521,0.50871,0.55553,0.56008,0.52208,0.44324,0.34296,0.25238,0.18165,0.13132,0.091061,0.042986,1.7056e-21,1.5774e-21,1.5878e-21,1.5774e-21,1.758e-21,1.5931e-21,1.6009e-21,1.6642e-21,1.7553e-21,1.6291e-21,1.5922e-21,1.5774e-21,1.5774e-21,1.5942e-21,1.5779e-21,1.6118e-21,1.5945e-21,0.013861,0.094767,0.1374
0.083411,0.10531,0.12563,0.14537,0.16546,0.18213,0.19927,0.22261,0.24182,0.25212,0.25154,0.2428,0.22238,0.19038,0.14563,0.093188,0.048893,0.020219,1.5774e-21,1.619e-21,1.5873e-21,0.002127,0.013698,0.014195,0.0090584,0.033061,0.061182,0.09367,0.12563,0.1664,0.23406,0.31946,0.38672,0.4231,0.4232,0.38747,0.31795,0.23305,0.16533,0.11262,0.073877,0.042089,0.003732,1.5857e-21,2.1371e-21,1.596e-21,1.5774e-21,1.5774e-21,1.6337e-21,1.5866e-21,1.6962e-21,1.5774e-21,1.5897e-21,1.6181e-21,1.6747e-21,1.6254e-21,1.6936e-21,1.5837e-21,1.6016e-21,1.5774e-21,0.08196,0.1967,0.27768
0.10138,0.13173,0.15997,0.18694,0.21349,0.23635,0.26,0.29271,0.31697,0.32897,0.32625,0.3129,0.28444,0.24134,0.1815,0.11113,0.052078,0.015272,1.5985e-21,1.5891e-21,1.5801e-21,0.0056423,0.022474,0.021683,0.009347,0.033582,0.060855,0.09083,0.1189,0.1539,0.21147,0.28229,0.34555,0.37631,0.37019,0.32916,0.25434,0.16597,0.10859,0.06338,0.027382,2.2291e-21,1.5774e-21,1.6258e-21,1.5774e-21,1.5774e-21,0.0071154,0.013482,1.6014e-21,1.5855e-21,1.6237e-21,1.7108e-21,1.5803e-21,1.6203e-21,1.5774e-21,1.6398e-21,1.5777e-21,1.5774e-21,1.5781e-21,0.035768,0.18863,0.37398,0.55902
0.091179,0.12148,0.14974,0.17647,0.20225,0.22512,0.24893,0.28235,0.30556,0.31646,0.31262,0.29841,0.26956,0.22692,0.16818,0.099178,0.041776,0.0074006,1.5774e-21,1.5962e-21,1.5778e-21,0.0079082,0.024403,0.022992,0.0084921,0.027106,0.046887,0.067063,0.084547,0.10548,0.13949,0.17888,0.22396,0.2436,0.23489,0.20094,0.14149,0.072928,0.039296,0.011415,1.6729e-21,1.5774e-21,1.5926e-21,1.5774e-21,1.7829e-21,0.0040935,0.031043,0.038881,1.613e-21,1.5774e-21,1.5774e-21,1.5833e-21,1.5889e-21,1.5774e-21,1.5774e-21,1.635e-21,1.631e-21,1.6228e-21,1.595e-21,0.063384,0.23083,0.43054,0.62147
0.15049,0.20662,0.25779,0.30472,0.34847,0.38763,0.42807,0.48517,0.52183,0.53747,0.52884,0.50341,0.45373,0.38055,0.27809,0.1552,0.05247,1.5823e-21,1.5774e-21,1.5846e-21,1.5811e-21,0.022873,0.050697,0.048285,0.020654,0.042852,0.061635,0.074242,0.078589,0.078148,0.072337,0.047593,0.076651,0.078719,0.054641,0.011492,1.908e-21,1.6213e-21,1.6495e-21,1.5774e-21,1.635e-21,1.5774e-21,1.6066e-21,1.6127e-21,1.595e-21,0.059469,0.14285,0.16329,0.064183,1.5903e-21,1.5774e-21,1.5872e-21,1.5778e-21,1.5783e-21,1.5774e-21,1.5981e-21,1.595e-21,1.5867e-21,1.606e-21,0.18204,0.50543,0.8203,0.99682
0.024226,0.01496,1.6103e-21,1.7133e-21,1.5774e-21,1.5943e-21,1.6821e-21,1.5774e-21,1.6063e-21,1.5774e-21,1.6741e-21,1.5819e-21,1.5868e-21,1.6205e-21,1.7047e-21,1.5827e-21,1.5824e-21,1.5837e-21,1.5951e-21,0.012098,0.040986,0.038789,0.031397,0.045972,0.070831,0.070587,0.064103,0.049816,0.029746,1.5774e-21,1.8057e-21,1.5774e-21,1.5774e-21,1.62e-21,1.8079e-21,1.5774e-21,1.5774e-21,1.6361e-21,1.6696e-21,0.0049087,0.071209,0.13364,0.1911,0.25273,0.23565,0.19129,0.21704,0.22617,0.2041,0.088886,0.036764,0.00096323,0.052779,0.17234,0.27492,0.30066,0.23953,0.15334,0.015149,1.5821e-21,1.5774e-21,1.5774e-21,1.5774e-21
1.6208e-21,1.7224e-21,1.6748e-21,1.5774e-21,1.7685e-21,1.5774e-21,1.5774e-21,2.1933e-21,1.6935e-21,1.9055e-21,1.9454e-21,1.6341e-21,1.7492e-21,1.6089e-21,1.7687e-21,1.5797e-21,1.5975e-21,1.6114e-21,1.5774e-21,1.6118e-21,0.0050429,0.013011,0.014291,0.020998,0.031247,0.032788,0.032342,0.029114,0.023616,0.0049168,9.5082e-21,1.8168e-21,1.5774e-21,1.6686e-21,1.8098e-21,1.5774e-21,1.8302e-21,1.5873e-21,1.6161e-21,0.033667,0.064969,0.096065,0.12396,0.15036,0.13267,0.095665,0.098502,0.10135,0.094843,0.047241,0.02454,0.0055662,0.03172,0.094691,0.14735,0.15834,0.12316,0.075781,1.6697e-21,1.5774e-21,3.6133e-20,1.6792e-21,1.5064e-19
1.5986e-21,1.6583e-21,1.615e-21,1.7048e-21,1.5774e-21,1.5976e-21,1.5774e-21,1.6293e-21,1.6765e-21,1.5774e-21,1.5774e-21,1.7186e-21,1.6353e-21,1.6644e-21,1.5774e-21,1.5774e-21,1.5895e-21,1.6101e-21,1.5774e-21,1.5774e-21,1.5795e-21,1.5774e-21,0.0054966,0.0051497,0.00036965,1.5774e-21,1.5774e-21,1.5774e-21,2.8521e-21,2.6323e-21,1.5774e-21,1.5915e-20,1.5774e-21,1.9109e-21,1.8525e-21,1.5774e-21,1.7521e-21,1.6672e-21,1.6586e-21,0.0093934,0.029477,0.049561,0.067945,0.085765,0.076965,0.05422,0.051042,0.051116,0.049473,0.026669,0.011539,1.5774e-21,0.01537,0.052925,0.081805,0.084898,0.063028,0.036201,1.5812e-21,1.5867e-21,1.6308e-20,1.5774e-21,1.5774e-21
1.5774e-21,1.5774e-21,1.7146e-21,1.629e-21,1.6114e-21,1.5774e-21,2.061e-21,1.5774e-21,1.6554e-21,1.6338e-21,1.6356e-21,1.6598e-21,1.5784e-21,1.6345e-21,1.6575e-21,1.589e-21,1.5906e-21,1.5854e-21,0.019513,0.078712,0.11541,0.16035,0.1798,0.16086,0.096514,0.052398,1.6982e-21,1.5774e-21,1.9413e-21,2.066e-21,2.1654e-21,6.5712e-21,1.5774e-21,1.5774e-21,1.9717e-21,1.5774e-21,0.0035902,0.11923,0.19747,0.27862,0.35469,0.40957,0.42295,0.36691,0.30545,0.17961,0.052376,0.011058,0.038394,0.13289,0.11609,0.098162,0.12849,0.19379,0.1538,0.092862,0.058584,0.042852,0.053061,0.10782,1.1694e-20,1.578e-21,1.5774e-21
1.583e-21,1.7135e-21,1.5797e-21,1.6439e-21,1.6643e-21,1.5774e-21,1.7485e-21,2.0761e-21,1.6555e-21,1.7352e-21,1.5774e-21,1.5822e-21,1.5882e-21,1.5774e-21,1.609e-21,1.5905e-21,1.5862e-21,1.5935e-21,1.5839e-21,0.046212,0.090529,0.14889,0.18137,0.17463,0.13263,0.11813,0.099464,0.064206,0.029697,0.010246,0.058611,0.19295,0.32003,0.43014,0.52359,0.59627,0.6275,0.59686,0.53865,0.5025,0.4869,0.48191,0.46097,0.3969,0.32636,0.19558,0.081986,0.052308,0.07917,0.13827,0.10736,0.084207,0.12769,0.22168,0.2419,0.21289,0.16865,0.12397,0.077819,0.046353,1.9449e-20,1.6097e-21,1.3257e-18
1.5774e-21,1.5774e-21,1.5774e-21,1.6335e-21,1.8873e-21,1.5774e-21,1.8752e-21,1.6338e-21,1.6786e-21,1.5774e-21,1.625e-21,1.5902e-21,1.6644e-21,1.6138e-21,1.6706e-21,1.5913e-21,1.586e-21,1.5852e-21,1.5774e-21,0.009513,0.053962,0.11387,0.15298,0.15651,0.13925,0.15277,0.17249,0.19084,0.21926,0.27109,0.39472,0.58586,0.75045,0.8494,0.89124,0.88732,0.83923,0.73154,0.61078,0.52489,0.46795,0.43518,0.40137,0.34746,0.28545,0.17004,0.081392,0.063749,0.091541,0.12326,0.088839,0.068301,0.11757,0.22302,0.29419,0.29526,0.24691,0.18414,0.095411,1.5777e-21,2.8241e-20,1.6574e-21,1.5774e-21
1.631e-21,1.5774e-21,1.5984e-21,1.6193e-21,1.5774e-21,1.5972e-21,1.5774e-21,1.5774e-21,1.6558e-21,1.5774e-21,1.5774e-21,1.614e-21,1.6518e-21,1.5774e-21,1.6859e-21,1.5812e-21,1.5843e-21,1.5862e-21,1.5971e-21,1.5878e-21,0.019766,0.076938,0.11938,0.12478,0.11856,0.14784,0.19236,0.24793,0.31773,0.40721,0.53795,0.69061,0.82079,0.87892,0.87813,0.82099,0.71383,0.55918,0.44157,0.36704,0.31138,0.27983,0.25529,0.23421,0.19761,0.11879,0.069897,0.067238,0.091941,0.088209,0.056048,0.044903,0.09441,0.19675,0.32511,0.36733,0.32487,0.24793,0.11586,1.5774e-21,1.5774e-21,1.7137e-21,3.6613e-18
0.064663,0.0012006,1.7091e-21,1.5913e-21,1.7381e-21,1.6087e-21,1.797e-21,1.7632e-21,1.5975e-21,1.7173e-21,1.6057e-21,1.5864e-21,1.6023e-21,1.5856e-21,1.7691e-21,1.5806e-21,1.5826e-21,1.5878e-21,1.5774e-21,1.5917e-21,1.6136e-21,0.038724,0.088725,0.097372,0.099676,0.1386,0.19604,0.26967,0.35589,0.45343,0.56307,0.65921,0.75895,0.79108,0.7575,0.65861,0.52311,0.372,0.29758,0.25251,0.21055,0.18981,0.17757,0.17721,0.1494,0.07862,0.042524,0.047239,0.07664,0.064555,0.036719,0.030998,0.078866,0.17745,0.34353,0.41327,0.37602,0.2908,0.12786,1.5875e-21,1.0369e-20,1.5912e-21,5.4195e-19
1.6529e-21,1.5835e-21,1.5848e-21,1.6455e-21,1.6023e-21,1.5911e-21,1.5774e-21,1.5774e-21,1.5929e-21,1.6344e-21,1.5896e-21,0.0074632,0.017048,0.018439,0.0013996,1.5823e-21,1.5842e-21,1.5936e-21,1.5919e-21,1.5822e-21,1.5807e-21,1.6418e-21,1.5811e-21,1.5774e-21,1.5774e-21,1.5774e-21,1.6303e-21,1.5774e-21,1.6481e-21,1.5774e-21,1.5774e-21,2.7648e-21,2.0112e-21,1.9357e-21,1.6832e-21,1.5774e-21,1.6074e-21,1.6046e-21,1.6111e-21,1.7086e-21,1.6192e-21,2.0746e-21,1.5774e-21,1.6037e-21,1.5786e-21,1.5774e-21,1.6215e-21,2.2738e-21,1.5804e-21,1.5774e-21,1.5788e-21,1.5774e-21,1.6024e-21,1.5774e-21,1.6565e-21,1.5774e-21,1.5884e-21,1.6171e-21,1.6003e-21,1.5774e-21,1.7261e-21,1.5774e-21,2.1445e-18
1.5839e-21,1.6455e-21,1.5774e-21,1.5798e-21,1.6989e-21,1.5774e-21,1.5774e-21,1.839e-21,1.5797e-21,1.6214e-21,1.5821e-21,1.5962e-21,1.591e-21,1.5774e-21,1.6154e-21,1.5925e-21,1.5922e-21,1.5939e-21,1.5774e-21,1.5922e-21,1.5913e-21,1.5783e-21,1.5774e-21,1.5975e-21,1.5774e-21,1.5774e-21,1.6104e-21,1.6204e-21,1.6548e-21,1.5829e-21,1.9561e-21,1.5774e-21,1.9426e-21,1.6191e-21,1.6106e-21,1.6068e-21,2.0776e-21,1.6414e-21,1.6368e-21,1.5954e-21,1.6264e-21,1.7291e-21,1.6308e-21,1.6615e-21,1.6408e-21,1.5868e-21,1.6161e-21,1.6814e-21,1.5819e-21,1.5774e-21,1.6094e-21,1.5774e-21,1.5846e-21,1.5969e-21,1.5774e-21,1.9292e-21,1.5841e-21,1.6055e-21,1.5823e-21,1.5828e-21,1.5774e-21,1.5991e-21,1.5774e-21
1.5809e-21,1.5774e-21,1.5774e-21,1.5855e-21,1.8722e-21,1.5885e-21,1.5774e-21,1.6463e-21,1.5813e-21,1.6821e-21,1.6401e-21,1.6654e-21,1.61e-21,1.5789e-21,1.5876e-21,1.5941e-21,1.5783e-21,1.594e-21,1.595e-21,1.5851e-21,1.5778e-21,1.6068e-21,1.6145e-21,1.5979e-21,1.6661e-21,1.5774e-21,1.5774e-21,1.808e-21,1.5774e-21,2.5382e-21,2.1115e-21,1.9896e-21,1.5774e-21,1.5774e-21,1.7722e-21,1.6292e-21,1.5774e-21,1.6155e-21,1.5995e-21,1.6653e-21,1.6048e-21,1.7739e-21,1.5774e-21,1.5774e-21,1.5949e-21,1.5783e-21,1.6167e-21,1.7334e-21,1.5843e-21,1.5805e-21,1.5811e-21,1.604e-21,1.588e-21,1.5774e-21,1.6112e-21,1.5899e-21,1.6117e-21,1.5859e-21,1.6081e-21,1.5774e-21,1.5774e-21,1.5774e-21,1.5774e-21
1.5774e-21,1.5774e-21,1.5774e-21,1.671e-21,1.5774e-21,1.5774e-21,1.6946e-21,1.6706e-21,1.5796e-21,0.0024569,0.012954,0.011653,0.0013415,1.5774e-21,1.5774e-21,1.5867e-21,1.5807e-21,1.5918e-21,1.6013e-21,1.5907e-21,1.5783e-21,1.5774e-21,1.5774e-21,1.7333e-21,1.5774e-21,1.5774e-21,1.6295e-21,1.6172e-21,1.5774e-21,1.5774e-21,3.0403e-21,1.5774e-21,1.9509e-21,1.6227e-21,1.6744e-21,1.5774e-21,1.7779e-21,1.5904e-21,1.6166e-21,1.6292e-21,1.5854e-21,1.5774e-21,1.5774e-21,1.5784e-21,1.6329e-21,1.5835e-21,1.5829e-21,2.0996e-21,1.5951e-21,1.5794e-21,1.6571e-21,1.5774e-21,1.5882e-21,1.5833e-21,1.5774e-21,1.5774e-21,1.5923e-21,1.6261e-21,1.5859e-21,1.5898e-21,1.5774e-21,1.6222e-21,1.5774e-21
1.6105e-21,1.5774e-21,1.5774e-21,1.5814e-21,1.6387e-21,1.5865e-21,1.6108e-21,0.0029634,0.10244,0.14993,0.16734,0.16119,0.13609,0.094734,0.030379,1.5786e-21,1.581e-21,1.5965e-21,1.5774e-21,1.5853e-21,1.5889e-21,1.5774e-21,1.5887e-21,0.00011449,0.01012,0.013954,0.018577,0.022476,0.027775,0.032754,0.039224,0.024524,1.6894e-21,1.5913e-21,1.6173e-21,1.5774e-21,1.7548e-21,1.5996e-21,1.5982e-21,1.8561e-21,1.6085e-21,1.8267e-21,1.5943e-21,1.5849e-21,1.7392e-21,1.5803e-21,1.5866e-21,1.5774e-21,1.5845e-21,1.5774e-21,0.04039,0.030628,0.025399,1.5774e-21,1.5844e-21,1.5831e-21,1.598e-21,1.6098e-21,1.6004e-21,0.00075414,3.2501e-21,0.00025027,0.0017689
1.5774e-21,1.5774e-21,1.6412e-21,1.5886e-21,1.5774e-21,1.5923e-21,1.5774e-21,1.5873e-21,0.064566,0.13229,0.16304,0.16395,0.14016,0.092596,0.0095757,1.5828e-21,1.5823e-21,1.5821e-21,1.6153e-21,1.6113e-21,1.5776e-21,1.5774e-21,1.5774e-21,0.049469,0.14182,0.26725,0.38753,0.49386,0.56956,0.63041,0.67768,0.70036,0.64786,0.58034,0.51064,0.4405,0.40153,0.38749,0.3257,0.24832,0.17963,0.09655,0.0095689,1.5812e-21,1.8438e-21,1.5774e-21,1.5774e-21,1.7624e-21,1.5955e-21,1.5774e-21,0.16701,0.24715,0.1275,1.5774e-21,1.5774e-21,1.5774e-21,1.604e-21,1.5876e-21,1.6042e-21,0.18286,0.49754,0.79271,0.99044
1.5774e-21,1.5774e-21,1.5914e-21,1.5952e-21,1.5774e-21,1.5799e-21,1.5875e-21,1.8355e-21,1.6221e-21,0.021608,0.055981,0.061449,0.043887,0.0043304,1.5922e-21,1.5821e-21,1.5791e-21,1.5845e-21,1.5774e-21,1.5816e-21,1.5797e-21,1.5774e-21,0.018799,0.11019,0.24203,0.40949,0.56998,0.7075,0.80564,0.8834,0.9507,0.9867,0.99319,0.9916,0.98091,0.95101,0.90417,0.84415,0.74952,0.64244,0.55339,0.47201,0.38011,0.21759,0.032429,1.5774e-21,1.5774e-21,1.7009e-21,1.595e-21,0.027245,0.24138,0.2973,0.20456,1.5774e-21,1.5774e-21,1.627e-21,1.6388e-21,1.609e-21,1.5976e-21,0.025953,0.1511,0.28452,0.40217
1.5774e-21,1.6441e-21,1.5774e-21,1.6995e-21,1.619e-21,1.5859e-21,1.8074e-21,1.7102e-21,1.5774e-21,1.5937e-21,1.5774e-21,1.6242e-21,1.5774e-21,1.5781e-21,1.5774e-21,1.5875e-21,1.5825e-21,1.5947e-21,1.5774e-21,1.5904e-21,1.5811e-21,1.5774e-21,0.028264,0.12696,0.26999,0.45023,0.6236,0.77006,0.87308,0.94753,0.99523,1,1,1,1,1,0.9938,0.95693,0.88311,0.78666,0.70238,0.63519,0.55693,0.39723,0.18266,1.6314e-21,1.5774e-21,1.7459e-21,1.5882e-21,0.074942,0.25507,0.28837,0.2263,0.095592,1.5774e-21,1.6104e-21,1.6033e-21,1.5897e-21,1.5941e-21,1.5885e-21,1.5774e-21,1.5774e-21,1.5774e-21
1.5774e-21,1.813e-21,1.5889e-21,1.664e-21,1.7498e-21,1.5774e-21,1.5774e-21,1.7326e-21,1.6035e-21,1.5774e-21,1.6337e-21,1.5829e-21,1.5871e-21,1.5774e-21,1.6832e-21,1.5808e-21,1.5798e-21,1.5947e-21,1.5774e-21,1.5819e-21,1.5792e-21,1.5774e-21,0.01336,0.093961,0.20683,0.36221,0.52192,0.66974,0.78523,0.87861,0.95331,0.98515,0.99712,0.99858,0.99409,0.9718,0.92315,0.85324,0.77791,0.68716,0.6106,0.56125,0.50639,0.38747,0.20368,1.587e-21,1.6501e-21,1.6065e-21,1.5932e-21,0.072726,0.19391,0.21039,0.1814,0.13036,1.6025e-21,1.5789e-21,1.656e-21,1.6054e-21,1.5793e-21,1.5774e-21,1.5774e-21,1.5774e-21,1.5749e-21
1.6122e-21,1.6304e-21,1.616e-21,1.5774e-21,1.5774e-21,1.6618e-21,1.5774e-21,1.6109e-21,1.6027e-21,1.8051e-21,1.587e-21,1.6953e-21,1.5929e-21,1.5789e-21,1.6794e-21,1.586e-21,1.581e-21,1.5845e-21,1.5774e-21,1.5906e-21,1.58e-21,1.5774e-21,1.5821e-21,0.027685,0.09399,0.20153,0.32048,0.44459,0.5537,0.64724,0.70415,0.67015,0.66417,0.62438,0.54855,0.44256,0.34799,0.29132,0.30656,0.28188,0.24277,0.22711,0.21347,0.18045,0.081879,1.5774e-21,1.5774e-21,1.5774e-21,1.581e-21,0.022178,0.081146,0.095779,0.10092,0.12025,0.069662,1.5774e-21,1.5809e-21,1.61e-21,1.588e-21,1.5798e-21,1.5774e-21,1.5774e-21,1.5774e-21
1.5774e-21,1.5774e-21,1.5774e-21,1.6044e-21,1.6345e-21,1.5872e-21,1.9274e-21,1.6528e-21,1.5838e-21,1.5774e-21,1.6091e-21,1.629e-21,1.6204e-21,1.6194e-21,1.5774e-21,1.5977e-21,1.58e-21,1.5855e-21,1.5774e-21,1.5791e-21,1.5948e-21,1.6344e-21,1.5774e-21,1.6108e-21,1.5774e-21,1.5774e-21,1.5774e-21,1.5774e-21,1.5774e-21,1.7315e-21,1.5774e-21,2.8215e-21,1.6962e-21,1.5949e-21,2.2193e-21,1.6072e-21,1.853e-21,1.5923e-21,1.6115e-21,1.5947e-21,1.6557e-21,1.5774e-21,1.5774e-21,1.5774e-21,1.5774e-21,1.5774e-21,1.5774e-21,2.011e-21,1.5783e-21,1.579e-21,1.5855e-21,1.6245e-21,1.5893e-21,1.6153e-21,1.5774e-21,1.5924e-21,1.5901e-21,1.6073e-21,1.5824e-21,1.5774e-21,7.0918e-21,1.5774e-21,1.5774e-21
1.613e-21,1.5774e-21,1.5987e-21,1.6236e-21,1.5774e-21,1.5774e-21,1.5774e-21,1.7785e-21,1.647e-21,1.7669e-21,1.6117e-21,0.0032614,0.011678,0.02197,0.0093717,0.0014315,1.58e-21,1.5803e-21,1.5897e-21,1.598e-21,1.5812e-21,1.5997e-21,1.5774e-21,1.5895e-21,1.5774e-21,1.5774e-21,1.7362e-21,1.7738e-21,1.5774e-21,1.7996e-21,1.5774e-21,3.1889e-21,1.8095e-21,1.6699e-21,1.9269e-21,1.6746e-21,1.6629e-21,1.609e-21,1.6712e-21,1.6046e-21,1.6262e-21,1.8147e-21,1.5774e-21,1.6111e-21,1.6687e-21,1.581e-21,1.5774e-21,1.5774e-21,1.5955e-21,1.5774e-21,1.607e-21,1.5884e-21,1.578e-21,1.6108e-21,1.64e-21,1.6275e-21,1.6149e-21,1.6291e-21,1.58e-21,1.5881e-21,1.9499e-20,1.5774e-21,1.5774e-21
0.14954,0.2935,0.43083,0.54012,0.6297,0.70243,0.76328,0.80383,0.83376,0.84831,0.83466,0.78711,0.70123,0.57904,0.44014,0.35595,0.24769,0.14225,0.085046,0.03212,1.5792e-21,1.5804e-21,1.5774e-21,1.5895e-21,1.5774e-21,1.5998e-21,1.5793e-21,1.5774e-21,1.5774e-21,1.847e-21,1.74e-21,2.3047e-21,1.5774e-21,1.597e-21,2.1125e-21,1.6494e-21,1.6052e-21,1.5905e-21,1.5952e-21,1.5797e-21,1.5953e-21,1.606e-21,1.5774e-21,1.59e-21,1.5812e-21,1.5782e-21,0.19233,0.29927,0.06698,1.5774e-21,1.5774e-21,1.5916e-21,1.5776e-21,1.5774e-21,1.5979e-21,1.6245e-21,1.5886e-21,1.5799e-21,1.5847e-21,0.25718,0.69664,0.98853,1
0.47715,0.45677,0.36587,0.26874,0.15949,0.033391,1.9934e-21,1.6517e-21,1.6665e-21,1.5774e-21,1.5774e-21,1.5911e-21,1.5933e-21,1.5782e-21,1.5774e-21,1.5798e-21,0.086962,0.2279,0.30996,0.35289,0.34904,0.29245,0.20953,0.070058,1.6123e-21,1.6238e-21,1.6389e-21,1.5774e-21,1.5774e-21,1.5774e-21,1.9273e-21,1.5774e-21,1.6981e-21,1.5774e-21,1.6677e-21,1.5774e-21,1.8008e-21,1.5809e-21,1.6402e-21,1.5918e-21,1.6328e-21,1.5774e-21,1.5774e-21,0.0073288,0.13888,0.34441,0.52386,0.60001,0.46269,0.057995,1.603e-21,1.5774e-21,1.5802e-21,0.12025,0.54932,0.7346,0.71376,0.57962,0.30162,1.5774e-21,2.0562e-21,1.6008e-21,7.9965e-19
0.45471,0.4585,0.45521,0.42053,0.37909,0.32553,0.17806,1.5774e-21,1.6056e-21,1.6842e-21,1.5943e-21,1.6441e-21,1.5944e-21,1.5809e-21,1.5774e-21,0.07402,0.17386,0.21841,0.24619,0.25056,0.20937,0.11624,1.5919e-21,1.578e-21,1.5913e-21,1.5774e-21,1.5909e-21,1.5784e-21,1.6316e-21,1.5774e-21,1.5774e-21,3.0995e-21,1.5774e-21,1.6405e-21,2.4067e-21,1.5774e-21,1.5774e-21,1.596e-21,1.6291e-21,1.6295e-21,1.6154e-21,1.5875e-21,1.5889e-21,1.5774e-21,1.5774e-21,0.14518,0.52929,0.63661,0.45393,1.5774e-21,1.5774e-21,1.5774e-21,1.5791e-21,1.6054e-21,0.37995,0.64449,0.66239,0.55464,0.30897,0.056886,0.053323,0.052107,0.14384
0.15328,0.18943,0.21556,0.26389,0.31775,0.36948,0.46205,0.56983,0.64943,0.70673,0.73024,0.71361,0.65572,0.55301,0.41033,0.23166,0.09058,1.5925e-21,1.5774e-21,1.5774e-21,1.5783e-21,1.5774e-21,1.5779e-21,1.5774e-21,1.5774e-21,1.5774e-21,1.5774e-21,1.5774e-21,0.062891,0.087587,0.035271,0.12654,0.19303,0.23646,0.23639,0.17632,0.089568,1.5922e-21,1.6166e-21,1.6092e-21,1.5955e-21,1.5774e-21,1.5774e-21,1.5847e-21,1.7425e-21,1.581e-21,1.5774e-21,1.5774e-21,1.5799e-21,1.5832e-21,1.5818e-21,1.5774e-21,1.587e-21,1.6089e-21,1.596e-21,1.5856e-21,1.6097e-21,1.5785e-21,0.0092191,0.12956,0.34315,0.56707,0.95448
0.12672,0.14221,0.11995,0.13723,0.15497,0.18735,0.21354,0.23652,0.25086,0.25677,0.24771,0.22665,0.19144,0.14523,0.095102,0.055887,0.022934,0.0078018,0.017472,0.032037,0.041063,0.05389,0.062408,0.06286,0.049045,0.051495,0.075665,0.1165,0.18058,0.24062,0.31792,0.44756,0.52328,0.54197,0.49571,0.38689,0.23578,0.082742,1.6147e-21,1.6428e-21,1.7431e-21,1.7602e-21,1.5774e-21,1.617e-21,1.6807e-21,0.057659,0.14667,0.17386,0.11893,1.5774e-21,1.5958e-21,1.5774e-21,1.5888e-21,1.5876e-21,1.5774e-21,0.039255,0.070582,0.072129,0.055053,0.086331,0.23109,0.40916,0.76006
0.057885,0.073127,0.044854,0.071325,0.099006,0.14962,0.19935,0.24773,0.27418,0.28762,0.28265,0.26344,0.22613,0.1731,0.11146,0.052293,0.0091994,1.5862e-21,0.0072397,0.029231,0.046385,0.07118,0.091206,0.10417,0.10614,0.1221,0.15785,0.20322,0.26664,0.31511,0.36378,0.4117,0.45449,0.45669,0.41098,0.31967,0.19531,0.083921,1.6313e-21,1.6485e-21,1.6363e-21,1.5774e-21,1.5774e-21,1.5788e-21,0.024152,0.11641,0.16011,0.16706,0.12202,1.5802e-21,1.5774e-21,1.5961e-21,1.5943e-21,1.5829e-21,1.5774e-21,1.5774e-21,1.6053e-21,0.01284,0.027391,0.11956,0.33445,0.58469,0.95124
1.5774e-21,1.5774e-21,1.5797e-21,1.6381e-21,1.5774e-21,1.5774e-21,0.050399,0.13104,0.17278,0.19893,0.2088,0.20683,0.18666,0.1473,0.091724,0.015177,1.5846e-21,1.5836e-21,1.5948e-21,0.0075788,0.035966,0.076826,0.11256,0.14468,0.17749,0.2128,0.25449,0.28719,0.3199,0.32296,0.29074,0.13578,0.079115,0.040011,0.021215,0.019332,0.016005,0.046053,0.1093,0.10111,0.094044,0.10924,0.14696,0.21802,0.20698,0.18197,0.11211,0.07383,0.071368,0.041706,1.582e-21,1.5774e-21,1.5781e-21,1.5774e-21,1.5774e-21,1.5783e-21,1.6185e-21,1.587e-21,1.6027e-21,0.13746,0.41174,0.71111,0.99983
1.5774e-21,1.5861e-21,1.5774e-21,1.6425e-21,0.0098135,0.010419,0.065991,0.1511,0.21668,0.27377,0.31733,0.33314,0.3261,0.29305,0.23028,0.096385,0.0052285,1.5787e-21,1.5992e-21,1.5784e-21,1.5802e-21,1.5791e-21,1.5924e-21,1.5874e-21,0.087657,0.28771,0.48105,0.64986,0.75917,0.80515,0.79509,0.82352,0.81982,0.80141,0.77735,0.73769,0.7044,0.64999,0.52076,0.47161,0.41725,0.32992,0.2327,0.13182,0.019414,1.5774e-21,1.5774e-21,1.6329e-21,1.5774e-21,1.5797e-21,0.058284,0.10925,0.020425,1.6051e-21,1.5917e-21,1.6015e-21,1.5895e-21,1.5895e-21,1.5893e-21,0.0081418,0.10146,0.17963,0.31217
0.014359,0.0033198,1.6216e-21,1.5774e-21,1.7209e-21,0.0090093,1.6512e-21,1.7982e-21,0.0018882,0.016213,0.033748,0.044598,0.054247,0.061498,0.063209,0.044641,0.026909,1.5836e-21,1.634e-21,1.5774e-21,1.5816e-21,1.5774e-21,1.5882e-21,1.5976e-21,1.5774e-21,0.013469,0.14284,0.2864,0.39562,0.45035,0.40282,0.35805,0.26448,0.14428,0.020912,1.6005e-21,1.5774e-21,1.5802e-21,1.5962e-21,1.5967e-21,1.6059e-21,1.8964e-21,1.5774e-21,1.598e-21,1.7707e-21,1.5774e-21,1.6216e-21,1.5774e-21,1.5774e-21,1.6009e-21,1.6173e-21,0.023062,1.5871e-21,1.5998e-21,1.5888e-21,1.5843e-21,1.6048e-21,1.5862e-21,1.5774e-21,1.593e-21,1.5774e-21,1.59e-21,1.5774e-21
0.15597,0.14045,0.090359,0.048796,0.0061896,1.6453e-21,1.5774e-21,1.5774e-21,1.6245e-21,1.5774e-21,1.5774e-21,1.6025e-21,1.584e-21,1.837e-21,1.6025e-21,0.025929,0.05329,0.041072,1.597e-21,1.5911e-21,1.5802e-21,1.5794e-21,1.5821e-21,1.5774e-21,1.5774e-21,1.5906e-21,1.6086e-21,1.9128e-21,0.098582,0.16427,0.06912,1.7961e-21,1.8301e-21,1.6742e-21,1.6531e-21,1.5774e-21,1.7533e-21,1.5964e-21,1.6214e-21,1.5949e-21,1.5849e-21,1.5774e-21,1.6086e-21,1.5796e-21,1.6101e-21,1.5784e-21,1.5774e-21,1.5774e-21,1.5898e-21,1.5787e-21,1.5852e-21,1.5775e-21,1.5798e-21,1.6117e-21,1.5846e-21,1.5774e-21,1.5886e-21,1.5958e-21,1.5919e-21,1.5921e-21,1.1803e-20,1.6263e-21,8.1852e-22
1.5774e-21,1.656e-21,1.6888e-21,1.5774e-21,1.7382e-21,1.6161e-21,1.685e-21,1.5774e-21,1.5831e-21,1.6992e-21,1.589e-21,1.6098e-21,1.589e-21,1.5855e-21,1.5774e-21,1.5808e-21,1.5874e-21,1.583e-21,0.024437,0.070108,0.11293,0.15925,0.19724,0.23118,0.23887,0.21993,0.18067,0.099618,0.0070645,1.5774e-21,1.5774e-21,1.5774e-21,1.5911e-21,1.6411e-21,2.2701e-21,0.06206,0.19689,0.30152,0.36804,0.37882,0.41452,0.48656,0.55078,0.56375,0.48766,0.33087,0.1936,0.16012,0.1698,0.19393,0.077535,1.601e-21,0.050287,0.23375,0.24491,0.18194,0.11686,0.059003,0.0097197,0.038184,0.10946,0.19628,0.29099
0.017411,1.5774e-21,1.5774e-21,1.5798e-21,1.6593e-21,1.6049e-21,1.5774e-21,1.6044e-21,1.5883e-21,1.5774e-21,1.5774e-21,1.5924e-21,1.58e-21,1.672e-21,1.5774e-21,1.584e-21,1.5862e-21,0.042749,0.16802,0.24297,0.3091,0.3482,0.38774,0.4639,0.55604,0.64181,0.7615,0.8801,0.97728,1,1,1,1,1,1,1,1,1,1,1,1,1,1,0.9969,0.86091,0.4145,0.13604,0.13352,0.18129,0.3311,0.40984,0.37801,0.43437,0.60153,0.76111,0.77884,0.67044,0.47864,0.17019,1.5774e-21,6.3439e-21,1.5986e-21,1.5774e-21
1.5893e-21,1.5774e-21,1.5774e-21,1.6321e-21,1.5774e-21,1.5795e-21,1.5774e-21,1.5774e-21,1.7281e-21,0.015053,0.030011,0.037437,0.038163,0.030796,0.01281,1.5797e-21,1.5788e-21,1.594e-21,1.5774e-21,1.5826e-21,1.5841e-21,1.5774e-21,0.0062847,0.031278,0.077162,0.10743,0.12102,0.11509,0.083632,0.023672,1.5774e-21,2.2745e-21,1.5774e-21,1.6056e-21,1.9382e-21,1.5774e-21,1.5774e-21,1.6145e-21,1.7859e-21,1.7326e-21,1.6453e-21,1.6214e-21,1.5774e-21,1.5902e-21,1.879e-21,1.5774e-21,1.5774e-21,1.5774e-21,1.6814e-21,1.5803e-21,0.059868,0.080343,0.050204,1.6141e-21,1.5774e-21,1.6156e-21,1.617e-21,1.6159e-21,1.6039e-21,0.02121,0.14054,0.2839,0.5038
1.5774e-21,1.5774e-21,1.5774e-21,1.5774e-21,1.7605e-21,1.5841e-21,1.7086e-21,2.5689e-21,1.6404e-21,0.014357,0.029291,0.036636,0.0373,0.029865,0.011805,1.5774e-21,1.5795e-21,1.5928e-21,1.5774e-21,1.5855e-21,1.5824e-21,1.5774e-21,0.0075474,0.032732,0.078526,0.108,0.12006,0.11185,0.077546,0.014239,1.6756e-21,1.5774e-21,1.5935e-21,1.5969e-21,2.3832e-21,1.676e-21,1.9445e-21,1.6108e-21,1.6788e-21,1.673e-21,1.5937e-21,1.6516e-21,1.5774e-21,1.5782e-21,1.7143e-21,1.5853e-21,1.5774e-21,1.9195e-21,1.5851e-21,1.5774e-21,0.06043,0.081318,0.050681,1.5774e-21,1.588e-21,1.6123e-21,1.6204e-21,1.5919e-21,1.7306e-21,0.021457,0.14225,0.2873,0.50945
1.5852e-21,1.5935e-21,1.5774e-21,1.6177e-21,1.5795e-21,1.5774e-21,1.6895e-21,1.6148e-21,1.5875e-21,1.5774e-21,1.5866e-21,1.6004e-21,1.5931e-21,1.5794e-21,1.6446e-21,1.5903e-21,1.5803e-21,1.5865e-21,1.5789e-21,1.5774e-21,1.5841e-21,0.012597,0.075537,0.15778,0.28728,0.36347,0.38796,0.35469,0.25445,0.098625,1.6106e-21,1.5774e-21,1.6173e-21,1.6601e-21,1.6017e-21,1.606e-21,1.7982e-21,1.5861e-21,1.5861e-21,1.5928e-21,1.6073e-21,1.5774e-21,1.5774e-21,1.5836e-21,1.5961e-21,1.5781e-21,1.5793e-21,1.6708e-21,1.5885e-21,1.5774e-21,0.18358,0.2491,0.17656,0.00053928,1.5774e-21,1.5941e-21,1.5849e-21,1.5873e-21,1.5774e-21,1.6186e-21,0.10733,0.26537,0.41452
1.5875e-21,1.5774e-21,1.5905e-21,1.5774e-21,1.5951e-21,1.581e-21,1.5774e-21,1.5774e-21,1.5929e-21,1.6034e-21,1.5774e-21,0.045856,0.082186,0.087878,0.054224,1.5828e-21,1.5778e-21,1.5857e-21,1.5774e-21,1.5809e-21,1.5783e-21,1.5774e-21,0.020841,0.091215,0.19838,0.30786,0.41515,0.50436,0.57381,0.61694,0.64058,0.62108,0.64287,0.68104,0.73826,0.79471,0.82814,0.84047,0.82731,0.79614,0.7748,0.76291,0.74037,0.66417,0.48478,0.1106,1.5774e-21,1.6569e-21,1.6011e-21,0.13502,0.16578,0.132,0.10263,0.042937,1.5774e-21,1.6105e-21,1.5917e-21,1.5803e-21,1.584e-21,0.010275,0.13182,0.24952,0.39939
0.0074967,0.018006,0.060042,0.10364,0.13769,0.17629,0.21211,0.24151,0.2274,0.1997,0.16938,0.15646,0.14831,0.14109,0.13194,0.11522,0.1063,0.072726,0.024841,0.0017443,1.5792e-21,0.009546,0.029477,0.044838,0.074273,0.0898,0.10426,0.1109,0.10986,0.093539,0.13134,0.211,0.28758,0.35238,0.40182,0.42767,0.4283,0.40287,0.35156,0.30895,0.29127,0.29155,0.28917,0.24971,0.20647,0.1015,0.058261,0.057722,0.047797,0.08708,0.10376,0.095741,0.094546,0.075962,0.057092,0.035082,0.02515,0.022371,0.0125,0.032815,0.13328,0.25088,0.41278
1.5774e-21,1.6015e-21,1.5774e-21,1.5933e-21,0.012122,0.029246,0.031068,0.020698,1.6344e-21,1.5774e-21,1.588e-21,1.6417e-21,1.5827e-21,1.5906e-21,1.5774e-21,0.035421,0.075897,0.080376,0.054706,0.046873,0.043121,0.07137,0.092958,0.10873,0.12277,0.11531,0.1052,0.08372,0.062553,0.046642,0.14233,0.32689,0.45649,0.55195,0.61197,0.6363,0.60766,0.53672,0.4353,0.36497,0.33806,0.34019,0.3373,0.2897,0.23622,0.1299,0.094787,0.097649,0.074374,0.088839,0.10103,0.094124,0.10038,0.098383,0.10489,0.093181,0.077209,0.059084,0.024257,0.0058528,0.042984,0.075309,0.043327
1.5955e-21,1.6228e-21,1.5964e-21,1.5983e-21,1.6636e-21,1.6666e-21,1.6695e-21,0.022129,0.051878,0.071717,0.085347,0.096932,0.099033,0.090435,0.069398,0.031395,1.5852e-21,1.5812e-21,1.5774e-21,1.578e-21,1.5801e-21,1.6004e-21,1.5774e-21,1.5774e-21,1.5774e-21,1.5774e-21,1.5837e-21,1.5774e-21,2.0454e-21,1.7604e-21,1.5774e-21,1.5774e-21,1.6768e-21,1.5774e-21,2.1205e-21,1.5939e-21,1.885e-21,1.6068e-21,1.5875e-21,1.6208e-21,1.6104e-21,1.5774e-21,1.5774e-21,1.6082e-21,1.6666e-21,1.5815e-21,1.5774e-21,1.5891e-21,1.5939e-21,1.5774e-21,0.0022839,0.011762,1.5793e-21,1.5795e-21,1.5774e-21,1.589e-21,1.6008e-21,1.5982e-21,1.6057e-21,1.6191e-21,1.5774e-21,1.5959e-21,3.3034e-20
0.0092781,0.042697,0.04983,0.058721,0.066904,0.063552,0.075125,0.079891,0.10367,0.11907,0.12919,0.1362,0.13525,0.1245,0.10853,0.081014,0.05538,0.045172,0.098249,0.12967,0.12487,0.049415,1.5931e-21,1.5774e-21,0.020054,0.042973,0.045804,0.03183,1.5774e-21,1.5774e-21,2.0983e-21,1.5774e-21,2.255e-21,1.6409e-21,1.6587e-21,1.5883e-21,2.3913e-21,1.5879e-21,1.5903e-21,1.5919e-21,1.5959e-21,1.73e-21,1.6191e-21,1.638e-21,1.6916e-21,1.5774e-21,0.043266,0.044033,0.02027,1.5774e-21,0.031285,0.038116,0.025841,1.7009e-21,0.022979,0.053662,0.03571,0.0059223,1.5796e-21,1.5774e-21,1.5774e-21,1.5774e-21,0
1.6045e-21,1.5774e-21,1.5774e-21,1.5779e-21,1.5774e-21,1.5827e-21,1.8924e-21,1.6987e-21,0.021586,0.039742,0.053447,0.066091,0.070869,0.06636,0.050688,0.019169,1.5798e-21,1.5805e-21,1.6219e-21,1.5901e-21,1.5816e-21,1.5774e-21,1.5774e-21,1.5807e-21,1.5774e-21,1.5774e-21,1.6835e-21,1.5774e-21,1.7194e-21,1.5774e-21,1.5774e-21,2.5806e-21,2.2272e-21,1.6858e-21,1.651e-21,1.5774e-21,1.6683e-21,1.5808e-21,1.6492e-21,1.5782e-21,1.6071e-21,1.675e-21,1.6396e-21,1.6053e-21,1.5774e-21,1.5774e-21,1.609e-21,1.6159e-21,1.5847e-21,1.5844e-21,0.0047424,0.0097985,1.578e-21,1.604e-21,1.5774e-21,1.5774e-21,1.609e-21,1.5904e-21,1.5787e-21,1.643e-21,1.5774e-21,1.5774e-21,6.77e-19
1.6735e-21,1.5786e-21,1.6742e-21,1.6046e-21,1.5774e-21,1.5815e-21,1.5774e-21,1.5774e-21,1.6255e-21,1.5774e-21,1.6324e-21,1.5806e-21,1.6152e-21,1.6222e-21,1.5802e-21,1.5792e-21,1.5783e-21,1.5822e-21,1.5965e-21,1.5821e-21,1.5829e-21,1.6159e-21,1.5774e-21,1.5774e-21,1.588e-21,1.5799e-21,1.66e-21,1.5774e-21,1.6237e-21,1.9481e-21,1.5774e-21,1.5774e-21,1.5774e-21,1.7945e-21,1.8124e-21,1.6552e-21,2.3129e-21,1.5889e-21,1.6337e-21,1.5918e-21,1.627e-21,1.6057e-21,1.5774e-21,0.017861,0.0034367,1.5774e-21,1.6167e-21,1.5774e-21,1.5994e-21,1.5774e-21,0.022781,0.011809,0.010342,0.010521,0.010767,1.5827e-21,1.5846e-21,1.6194e-21,1.5876e-21,1.5774e-21,1.5774e-21,1.5811e-21,1.3178e-21
1.5774e-21,1.6112e-21,1.5908e-21,1.5774e-21,1.5774e-21,1.5799e-21,2.1033e-21,1.587e-21,1.5819e-21,1.5774e-21,1.5779e-21,1.5836e-21,1.6278e-21,1.6075e-21,1.5876e-21,1.5782e-21,1.581e-21,1.5815e-21,0.014331,0.046916,0.074544,0.07988,0.085522,0.10025,0.10883,0.12024,0.14053,0.16668,0.20918,0.29794,0.47789,0.69377,0.81087,0.87078,0.88557,0.86443,0.80036,0.69221,0.5508,0.45109,0.40428,0.39406,0.37857,0.31445,0.22687,0.11016,0.034463,0.025841,0.047602,0.080915,0.070459,0.044257,0.071603,0.15943,0.1987,0.18499,0.13686,0.079499,0.01824,1.5774e-21,1.5774e-21,1.5774e-21,4.7535e-19
1.5774e-21,1.5924e-21,1.6754e-21,1.5774e-21,1.711e-21,1.5774e-21,1.6578e-21,1.5774e-21,1.5847e-21,1.5774e-21,1.6321e-21,1.6141e-21,1.5803e-21,1.5926e-21,1.5774e-21,1.5947e-21,1.5793e-21,1.5797e-21,0.014557,0.047604,0.075535,0.080803,0.086333,0.10095,0.10931,0.12044,0.14036,0.16604,0.20791,0.29558,0.47369,0.68804,0.80507,0.86576,0.88143,0.86134,0.79863,0.69239,0.55284,0.45467,0.40932,0.40083,0.38695,0.32307,0.2343,0.11431,0.035907,0.027014,0.049886,0.084945,0.074054,0.046546,0.0753,0.16752,0.20855,0.19397,0.14337,0.083199,0.019067,1.5806e-21,8.3417e-21,1.5806e-21,4.3305e-19
0.012443,0.018414,0.025749,0.035643,0.044372,0.053241,0.064224,0.075208,0.079392,0.080398,0.077922,0.073156,0.065366,0.054796,0.042356,0.028154,0.017285,0.0063561,1.6248e-21,1.666e-21,1.5799e-21,1.5954e-21,1.5993e-21,1.6092e-21,1.5776e-21,1.5774e-21,1.6648e-21,1.5774e-21,1.5774e-21,1.5774e-21,1.7463e-21,2.4086e-21,1.5774e-21,1.9023e-21,2.3904e-21,1.5774e-21,2.2051e-21,1.5947e-21,1.6037e-21,1.7531e-21,1.7784e-21,1.7279e-21,1.659e-21,1.5774e-21,1.7953e-21,1.632e-21,1.5774e-21,1.7494e-21,1.6073e-21,1.5899e-21,1.5795e-21,1.6469e-21,1.5923e-21,1.5843e-21,1.5774e-21,1.5793e-21,1.5853e-21,1.5879e-21,1.5871e-21,0.015368,0.049507,0.091704,0.1929
0.014701,0.021898,0.030861,0.043109,0.054224,0.065782,0.080291,0.09516,0.10171,0.10426,0.10226,0.097077,0.087621,0.074118,0.057719,0.03861,0.023831,0.0088064,1.5774e-21,1.5875e-21,1.5989e-21,1.5774e-21,1.5926e-21,1.6034e-21,1.5995e-21,1.5774e-21,1.6491e-21,1.8238e-21,1.5774e-21,1.5774e-21,1.5774e-21,3.7057e-21,1.5774e-21,1.6378e-21,1.6994e-21,1.5774e-21,2.0322e-21,1.6184e-21,1.6091e-21,1.5963e-21,1.8666e-21,1.6411e-21,1.5774e-21,1.6046e-21,1.7079e-21,1.6313e-21,1.6595e-21,1.6507e-21,1.6116e-21,1.5782e-21,1.6842e-21,1.5774e-21,1.5813e-21,1.5774e-21,1.5774e-21,1.8926e-21,1.5916e-21,1.6065e-21,1.5892e-21,0.018654,0.060244,0.11193,0.23763
1.5774e-21,1.7096e-21,1.6036e-21,1.5774e-21,1.5774e-21,1.6145e-21,1.5774e-21,1.5774e-21,1.5955e-21,1.5774e-21,1.5774e-21,1.6078e-21,1.5943e-21,1.6387e-21,1.6626e-21,1.5888e-21,1.5836e-21,1.5825e-21,0.005774,0.018909,0.030065,0.032225,0.034506,0.040466,0.043939,0.048566,0.056801,0.067446,0.084842,0.12165,0.19952,0.30425,0.37221,0.41354,0.42499,0.40906,0.36593,0.30389,0.23345,0.18795,0.16738,0.16298,0.15633,0.129,0.092457,0.044656,0.014225,0.011281,0.021666,0.037894,0.033532,0.021179,0.034178,0.07551,0.092777,0.084545,0.060967,0.034483,0.0077114,1.5774e-21,2.7426e-21,1.5774e-21,1.5256e-19
1.5774e-21,1.5774e-21,1.6418e-21,1.5777e-21,1.5774e-21,1.5774e-21,1.5774e-21,1.7493e-21,1.8843e-21,1.6279e-21,1.8003e-21,1.5888e-21,1.5915e-21,1.6072e-21,1.6084e-21,1.5877e-21,1.581e-21,1.5898e-21,0.0066924,0.021906,0.034802,0.037264,0.039856,0.046674,0.050598,0.055831,0.065184,0.077262,0.09703,0.1389,0.22731,0.34551,0.42157,0.46775,0.48087,0.46384,0.41646,0.34738,0.26809,0.21661,0.19351,0.18894,0.18174,0.15042,0.10812,0.052349,0.016388,0.01231,0.022714,0.038666,0.033685,0.021159,0.034248,0.076448,0.095429,0.088745,0.065489,0.037959,0.0086976,1.5774e-21,6.1108e-21,1.5774e-21,1.5774e-21
1.8185e-21,1.6355e-21,1.584e-21,1.5774e-21,1.5997e-21,1.5774e-21,1.5774e-21,1.5774e-21,1.7032e-21,1.5774e-21,1.7682e-21,1.6048e-21,1.5821e-21,1.5774e-21,1.6718e-21,1.6021e-21,1.5815e-21,1.6053e-21,0.00059414,0.0019523,0.0031232,0.0033723,0.0036431,0.0043156,0.0047364,0.0052936,0.0062587,0.0075043,0.0095234,0.013763,0.022766,0.035096,0.043269,0.048205,0.049348,0.047001,0.041354,0.033654,0.025298,0.019946,0.01739,0.016552,0.015487,0.012439,0.0086736,0.0040802,0.0012456,0.00091885,0.0016615,0.0027969,0.0024201,0.0015171,0.002461,0.0055276,0.0069586,0.0065322,0.0048674,0.0028496,0.00065922,1.5774e-21,6.4999e-21,1.5998e-21,8.7399e-20
1.6377e-21,1.5923e-21,1.5774e-21,1.6489e-21,1.5774e-21,1.5774e-21,1.5774e-21,1.5774e-21,1.6219e-21,1.5774e-21,1.5774e-21,1.6688e-21,1.6908e-21,1.7635e-21,1.6687e-21,1.5806e-21,1.5791e-21,1.6029e-21,0.00094955,0.0030767,0.0048228,0.005071,0.0053005,0.0060352,0.0063341,0.0067452,0.0075849,0.0086678,0.010522,0.014655,0.02362,0.035968,0.044455,0.050437,0.053332,0.053108,0.049341,0.042744,0.034416,0.029206,0.02749,0.028311,0.028656,0.024859,0.018641,0.0093715,0.0030314,0.0023394,0.004407,0.0076145,0.0066949,0.0042221,0.0068349,0.015213,0.018881,0.017408,0.012718,0.007294,0.0016542,1.581e-21,8.0182e-21,1.6697e-21,1.5774e-21
0.00029484,0.00042411,0.00057018,0.00075748,0.00089672,0.0010193,0.0011584,0.0012688,0.0012498,0.0011765,0.0010586,0.00092605,0.0007722,0.00060844,0.00044705,0.00028467,0.0001686,6.0074e-05,1.6647e-21,1.5774e-21,1.5789e-21,1.5774e-21,1.5875e-21,1.5774e-21,1.6526e-21,1.8206e-21,1.6729e-21,4.1536e-05,9.4789e-05,0.00020057,0.00038796,0.00063826,0.00077187,0.00078784,0.00064205,0.00038936,8.8624e-05,1.5847e-21,1.7034e-21,1.6056e-21,1.8972e-21,1.849e-21,1.5774e-21,1.6209e-21,1.5774e-21,1.5774e-21,1.5774e-21,2.648e-21,1.5988e-21,1.5799e-21,1.5812e-21,1.5778e-21,1.6303e-21,1.5774e-21,1.5774e-21,1.8315e-21,1.6103e-21,1.606e-21,1.6377e-21,0.0003215,0.0010219,0.0018602,9.5979e-19
