0,-0.016885,0.1603,0.091392,-0.092934,0.19341
0,-0.016885,0.1603,0.089876,-0.094476,0.19383
0,-0.016885,0.1603,0.088543,-0.095944,0.1942
0,-0.016885,0.1603,0.087598,-0.097296,0.19446
0,-0.016885,0.1603,0.087152,-0.098358,0.19465
0,-0.016885,0.1603,0.08727,-0.098622,0.19543
0,-0.016885,0.1603,0.087999,-0.098712,0.19595
0,-0.016885,0.1603,0.089378,-0.098622,0.1962
0,-0.016885,0.1603,0.091491,-0.098312,0.19611
0,-0.016885,0.1603,0.094309,-0.097796,0.19568
0,-0.016885,0.1603,0.09776,-0.097051,0.19487
0,-0.016885,0.1603,0.10179,-0.096073,0.19365
0,-0.016885,0.1603,0.10614,-0.094951,0.19203
0,-0.016885,0.1603,0.11081,-0.093707,0.18998
0,-0.016885,0.1603,0.11548,-0.092399,0.18753
0,-0.016885,0.1603,0.12007,-0.091043,0.18472
0,-0.016885,0.1603,0.12414,-0.089247,0.18233
0,-0.016885,0.1603,0.12768,-0.08745,0.17988
0,-0.016885,0.1603,0.13067,-0.085849,0.1773
0,-0.016885,0.1603,0.13304,-0.084462,0.1746
0,-0.016885,0.1603,0.13472,-0.083362,0.17185
0,-0.016885,0.1603,0.13583,-0.082599,0.16899
0,-0.016885,0.1603,0.13637,-0.082108,0.16614
0,-0.016885,0.1603,0.13646,-0.081891,0.16323
0,-0.016885,0.1603,0.13622,-0.081868,0.16036
0,-0.016885,0.1603,0.13585,-0.081906,0.15761
0,-0.016885,0.1603,0.13556,-0.081911,0.15508
0,-0.016885,0.1603,0.13543,-0.081745,0.15296
0,-0.016885,0.1603,0.13573,-0.08132,0.15137
0,-0.016885,0.1603,0.13653,-0.080541,0.15045
0,-0.016885,0.1603,0.13799,-0.079341,0.15025
0,-0.016885,0.1603,0.14002,-0.077689,0.15085
0,-0.016885,0.1603,0.14256,-0.075562,0.15214
0,-0.016885,0.1603,0.14537,-0.072999,0.15399
0,-0.016885,0.1603,0.14824,-0.07007,0.15623
0,-0.016885,0.1603,0.15091,-0.066861,0.15869
0,-0.016885,0.1603,0.15321,-0.063496,0.16116
0,-0.016885,0.1603,0.15499,-0.060083,0.1635
0,-0.016885,0.1603,0.15616,-0.056728,0.16564
0,-0.016885,0.1603,0.15682,-0.053458,0.16747
0,-0.016885,0.1603,0.15694,-0.050374,0.16902
0,-0.016885,0.1603,0.15667,-0.047434,0.17022
0,-0.016885,0.1603,0.15615,-0.044693,0.17109
0,-0.016885,0.1603,0.15542,-0.042132,0.17165
0,-0.016885,0.1603,0.15464,-0.039822,0.17187
0,-0.016885,0.1603,0.15385,-0.037732,0.17177
0,-0.016885,0.1603,0.15322,-0.035924,0.17128
0,-0.016885,0.1603,0.15265,-0.034456,0.17046
0,-0.016885,0.1603,0.15216,-0.033392,0.1693
0,-0.016885,0.1603,0.15177,-0.03277,0.16776
0,-0.016885,0.1603,0.15137,-0.032677,0.16597
0,-0.016885,0.1603,0.15094,-0.033145,0.16389
0,-0.016885,0.1603,0.15034,-0.034217,0.16174
0,-0.016885,0.1603,0.14961,-0.035878,0.15949
0,-0.016885,0.1603,0.14866,-0.03807,0.15739
0,-0.016885,0.1603,0.14752,-0.040745,0.15551
0,-0.016885,0.1603,0.14611,-0.043857,0.15406
0,-0.016885,0.1603,0.14452,-0.047217,0.15308
0,-0.016885,0.1603,0.14273,-0.050735,0.15268
0,-0.016885,0.1603,0.14079,-0.054242,0.15292
0,-0.016885,0.1603,0.13881,-0.057682,0.15374
0,-0.016885,0.1603,0.13688,-0.060849,0.15515
0,-0.016885,0.1603,0.13513,-0.063728,0.15711
