0.19991,0.0016748,0.031685,0.19462,0.0096382,0.038367
0.20071,0.001371,0.034474,0.19449,0.0093137,0.040526
0.20137,0.0014938,0.037328,0.1943,0.0093383,0.042712
0.20189,0.0021476,0.040083,0.19409,0.009822,0.044791
0.20229,0.0034043,0.042609,0.19387,0.010845,0.046653
0.20239,0.0055161,0.045183,0.19344,0.012666,0.048597
0.20241,0.0082141,0.047342,0.19302,0.015018,0.050169
0.20237,0.011517,0.049075,0.1926,0.017923,0.051363
0.20227,0.015427,0.050261,0.19219,0.021385,0.052064
0.20206,0.019933,0.050951,0.19172,0.025395,0.052325
0.20171,0.024994,0.051154,0.19118,0.029919,0.052158
0.20117,0.030555,0.050875,0.19052,0.034908,0.051569
0.20035,0.036487,0.050312,0.18968,0.040241,0.050751
0.19924,0.042743,0.049458,0.18861,0.045883,0.0497
0.19774,0.049192,0.048541,0.18727,0.051717,0.04863
0.19584,0.055736,0.047602,0.18563,0.057661,0.047581
0.19326,0.062373,0.047157,0.18343,0.063733,0.047061
0.1902,0.068871,0.047036,0.18087,0.069717,0.046886
0.18675,0.075063,0.04728,0.17801,0.075462,0.047092
0.18295,0.080913,0.047893,0.17488,0.080942,0.047678
0.1789,0.086293,0.048941,0.17155,0.086039,0.048704
0.1747,0.091185,0.050354,0.16807,0.09073,0.050104
0.17044,0.09557,0.05211,0.1645,0.094992,0.051851
0.16621,0.09947,0.054124,0.16086,0.098829,0.053864
0.16212,0.10291,0.056319,0.15723,0.10225,0.056066
0.15821,0.10597,0.05857,0.1536,0.1053,0.058331
0.26093,0.12649,0.065925,0.15005,0.10801,0.060535
0.25346,0.13646,0.067656,0.14659,0.11043,0.062606
0.24603,0.14535,0.068874,0.14331,0.11258,0.064403
0.23885,0.15322,0.069442,0.14023,0.11452,0.065873
0.23214,0.16017,0.069203,0.13739,0.1163,0.066939
0.22607,0.16621,0.068131,0.13484,0.11791,0.067606
0.22076,0.17142,0.06618,0.13263,0.11941,0.067847
0.21623,0.17583,0.063372,0.13075,0.12079,0.067678
0.21253,0.17948,0.059736,0.12925,0.12207,0.067127
0.20955,0.18241,0.055386,0.12806,0.12327,0.066253
0.20724,0.18466,0.050371,0.12719,0.1244,0.065065
0.2055,0.18623,0.044801,0.1266,0.12548,0.063609
0.20421,0.18715,0.038806,0.12625,0.12648,0.061931
0.20326,0.18749,0.032396,0.12611,0.12745,0.060013
0.20259,0.18723,0.025762,0.12615,0.12832,0.057952
0.20209,0.18644,0.018841,0.12634,0.12914,0.055687
0.20174,0.18508,0.01169,0.1267,0.12986,0.053266
0.20149,0.18314,0.0043139,0.12719,0.13047,0.050699
0.20137,0.18053,-0.0032803,0.12786,0.13093,0.047998
0.20133,0.17725,-0.011098,0.1287,0.13123,0.045137
0.20135,0.17323,-0.019134,0.12972,0.13135,0.042118
0.20149,0.1684,-0.027284,0.13097,0.13123,0.038952
0.20173,0.16268,-0.035462,0.13247,0.13083,0.035656
0.20209,0.15605,-0.043663,0.13426,0.13009,0.032168
0.20264,0.14842,-0.051655,0.13637,0.12893,0.028586
0.20336,0.13979,-0.059414,0.13883,0.1273,0.024867
0.20436,0.13009,-0.066673,0.14169,0.12508,0.021142
0.20558,0.11937,-0.073433,0.14495,0.12223,0.017372
0.20706,0.10766,-0.079459,0.14857,0.11868,0.013693
0.20873,0.095009,-0.084676,0.15254,0.11437,0.010149
0.21058,0.081519,-0.088855,0.15678,0.10929,0.0069265
0.21246,0.067343,-0.092032,0.16118,0.10349,0.0040013
0.21428,0.052659,-0.094096,0.16563,0.097041,0.001504
0.17312,0.086644,-0.0070539,0.16997,0.090061,-0.00051148
0.17708,0.079016,-0.0085757,0.1741,0.082698,-0.0020312
0.18071,0.071237,-0.0095896,0.17789,0.075159,-0.0030815
0.18393,0.063468,-0.010079,0.18128,0.067601,-0.0036383
