0.026409,0.10087,0.054046,0.083946,0.011101,0.094814
0.026409,0.10087,0.054046,0.082928,0.0095974,0.095234
0.026409,0.10087,0.054046,0.081901,0.0081932,0.095648
0.026409,0.10087,0.054046,0.080938,0.0069552,0.096037
0.026409,0.10087,0.054046,0.080093,0.0059811,0.096344
0.026409,0.10087,0.054046,0.079302,0.0057217,0.097199
0.026409,0.10087,0.054046,0.07868,0.0056681,0.097877
0.026409,0.10087,0.054046,0.078237,0.0058243,0.09839
0.026409,0.10087,0.054046,0.078021,0.0062328,0.098701
0.026409,0.10087,0.054046,0.078007,0.0068778,0.098843
0.026409,0.10087,0.054046,0.078171,0.0077722,0.098807
0.026409,0.10087,0.054046,0.078492,0.0089138,0.098594
0.026409,0.10087,0.054046,0.078864,0.010243,0.098275
0.026409,0.10087,0.054046,0.079279,0.011745,0.097855
0.026409,0.10087,0.054046,0.079611,0.01339,0.097409
0.026409,0.10087,0.054046,0.079829,0.015157,0.09695
0.026409,0.10087,0.054046,0.079623,0.017397,0.097207
0.026409,0.10087,0.054046,0.079101,0.019735,0.097711
0.026409,0.10087,0.054046,0.078278,0.022016,0.098426
0.026409,0.10087,0.054046,0.077145,0.024222,0.099337
0.026409,0.10087,0.054046,0.075697,0.026259,0.10043
0.026409,0.10087,0.054046,0.074,0.028079,0.10171
0.026409,0.10087,0.054046,0.072071,0.029681,0.10314
0.026409,0.10087,0.054046,0.069978,0.031041,0.10469
0.026409,0.10087,0.054046,0.067795,0.032147,0.10633
0.026409,0.10087,0.054046,0.06561,0.033042,0.10808
0.026409,0.10087,0.054046,0.063539,0.033735,0.10991
0.026409,0.10087,0.054046,0.061631,0.034272,0.1118
0.026409,0.10087,0.054046,0.060033,0.034671,0.11373
0.026409,0.10087,0.054046,0.058789,0.03499,0.11568
0.026409,0.10087,0.054046,0.057986,0.035252,0.11758
0.026409,0.10087,0.054046,0.057596,0.03553,0.11941
0.026409,0.10087,0.054046,0.057609,0.035872,0.12106
0.026409,0.10087,0.054046,0.057914,0.036368,0.1225
0.026409,0.10087,0.054046,0.058436,0.037043,0.12365
0.026409,0.10087,0.054046,0.059013,0.037942,0.12447
0.026409,0.10087,0.054046,0.059572,0.039076,0.12494
0.026409,0.10087,0.054046,0.060027,0.040434,0.12504
0.026409,0.10087,0.054046,0.060319,0.041997,0.1248
0.026409,0.10087,0.054046,0.060472,0.043742,0.12423
0.026409,0.10087,0.054046,0.060466,0.045599,0.12338
0.026409,0.10087,0.054046,0.060369,0.047569,0.12226
0.026409,0.10087,0.054046,0.060244,0.049574,0.12091
0.026409,0.10087,0.054046,0.060111,0.0516,0.11939
0.026409,0.10087,0.054046,0.060071,0.053563,0.11769
0.026409,0.10087,0.054046,0.060134,0.055486,0.11585
0.026409,0.10087,0.054046,0.060402,0.057283,0.11386
0.026409,0.10087,0.054046,0.060856,0.058957,0.11174
0.026409,0.10087,0.054046,0.061524,0.060482,0.10952
0.026409,0.10087,0.054046,0.062456,0.061841,0.10717
0.026409,0.10087,0.054046,0.06363,0.062999,0.10474
0.026409,0.10087,0.054046,0.065077,0.063937,0.10222
0.026409,0.10087,0.054046,0.066773,0.064605,0.099678
0.026409,0.10087,0.054046,0.068756,0.064954,0.097079
0.026409,0.10087,0.054046,0.070978,0.064937,0.094498
0.026409,0.10087,0.054046,0.073443,0.0645,0.091972
0.026409,0.10087,0.054046,0.076079,0.06357,0.089597
0.026409,0.10087,0.054046,0.078829,0.062174,0.087359
0.026409,0.10087,0.054046,0.081595,0.060286,0.085325
0.026409,0.10087,0.054046,0.084278,0.057982,0.083546
0.026409,0.10087,0.054046,0.086828,0.055275,0.08205
0.026409,0.10087,0.054046,0.089167,0.0523,0.080846
0.026409,0.10087,0.054046,0.091276,0.049103,0.079997
