0,-0.033843,0.16319,0.047919,-0.01144,0.15605
0,-0.033843,0.16319,0.047974,-0.011683,0.1562
0,-0.033843,0.16319,0.048021,-0.011892,0.15633
0,-0.033843,0.16319,0.048058,-0.012062,0.15643
0,-0.033843,0.16319,0.048076,-0.012144,0.15648
0,-0.033843,0.16319,0.048071,-0.012123,0.15647
0,-0.033843,0.16319,0.096391,0.010105,0.14992
0,-0.033843,0.16319,0.095548,0.010501,0.15054
0,-0.033843,0.16319,0.09506,0.011121,0.15092
0,-0.033843,0.16319,0.094898,0.011941,0.1511
0,-0.033843,0.16319,0.095039,0.012964,0.15106
0,-0.033843,0.16319,0.09547,0.014175,0.1508
0,-0.033843,0.16319,0.09605,0.015487,0.15041
0,-0.033843,0.16319,0.096794,0.016873,0.1499
0,-0.033843,0.16319,0.097534,0.018278,0.14934
0,-0.033843,0.16319,0.098243,0.019681,0.14874
0,-0.033843,0.16319,0.098711,0.021473,0.14879
0,-0.033843,0.16319,0.098929,0.023245,0.14905
0,-0.033843,0.16319,0.098891,0.024822,0.1495
0,-0.033843,0.16319,0.098582,0.026189,0.15011
0,-0.033843,0.16319,0.097952,0.027269,0.15088
0,-0.033843,0.16319,0.097095,0.028008,0.15179
0,-0.033843,0.16319,0.095999,0.028451,0.15281
0,-0.033843,0.16319,0.094751,0.028582,0.1539
0,-0.033843,0.16319,0.093411,0.028449,0.15503
0,-0.033843,0.16319,0.092098,0.028159,0.1562
0,-0.033843,0.16319,0.090939,0.027791,0.1574
0,-0.033843,0.16319,0.089944,0.027475,0.15864
0,-0.033843,0.16319,0.089275,0.027307,0.1599
0,-0.033843,0.16319,0.088949,0.027396,0.16122
0,-0.033843,0.16319,0.089026,0.02781,0.16256
0,-0.033843,0.16319,0.089427,0.028615,0.16391
0,-0.033843,0.16319,0.090105,0.029832,0.16521
0,-0.033843,0.16319,0.090927,0.031465,0.1664
0,-0.033843,0.16319,0.091796,0.033462,0.16742
0,-0.033843,0.16319,0.092544,0.03577,0.1682
0,-0.033843,0.16319,0.093129,0.03831,0.1687
0,-0.033843,0.16319,0.09349,0.041009,0.16887
0,-0.033843,0.16319,0.093594,0.043802,0.16874
0,-0.033843,0.16319,0.093517,0.046657,0.16828
0,-0.033843,0.16319,0.093243,0.049485,0.16756
0,-0.033843,0.16319,0.092889,0.052309,0.16654
0,-0.033843,0.16319,0.09253,0.055057,0.16529
0,-0.033843,0.16319,0.092199,0.05773,0.16382
0,-0.033843,0.16319,0.092013,0.060245,0.16215
0,-0.033843,0.16319,0.092001,0.062632,0.16029
0,-0.033843,0.16319,0.092281,0.064805,0.15823
0,-0.033843,0.16319,0.09283,0.06675,0.15599
0,-0.033843,0.16319,0.093689,0.068421,0.15361
0,-0.033843,0.16319,0.094922,0.069792,0.15103
0,-0.033843,0.16319,0.096485,0.070803,0.14834
0,-0.033843,0.16319,0.09841,0.071419,0.14551
0,-0.033843,0.16319,0.10063,0.071589,0.14265
0,-0.033843,0.16319,0.10315,0.071273,0.13972
0,-0.033843,0.16319,0.10588,0.070457,0.13684
0,-0.033843,0.16319,0.1088,0.069122,0.13405
0,-0.033843,0.16319,0.11176,0.067234,0.13149
0,-0.033843,0.16319,0.11471,0.064898,0.12915
0,-0.033843,0.16319,0.11752,0.062145,0.12712
0,-0.033843,0.16319,0.12011,0.059109,0.12545
0,-0.033843,0.16319,0.12244,0.055841,0.12415
0,-0.033843,0.16319,0.045002,-0.0020214,0.14937
0,-0.033843,0.16319,0.045313,-0.002804,0.15
