0.055769,0.015985,0.012042,0.084163,-0.0016864,0.016503
0.055764,0.016016,0.012549,0.083824,-0.0008682,0.017115
0.055752,0.016046,0.013013,0.083506,-7.4585e-05,0.017732
0.055718,0.01613,0.013436,0.083246,0.00068438,0.018373
0.055638,0.016346,0.01384,0.08308,0.0014274,0.019086
0.0555,0.016714,0.014268,0.082988,0.002243,0.019961
0.055325,0.017176,0.014621,0.083003,0.0029863,0.020859
0.055107,0.017739,0.014903,0.083123,0.0036686,0.02179
0.054843,0.018403,0.015093,0.083353,0.004272,0.022742
0.054527,0.019167,0.015206,0.083668,0.0048197,0.023725
0.054154,0.020022,0.015243,0.21838,-0.055009,0.063186
0.053719,0.020956,0.015209,0.22262,-0.047803,0.062431
0.053222,0.021947,0.015143,0.22671,-0.039816,0.061168
0.052657,0.022985,0.015048,0.23057,-0.031038,0.059351
0.052028,0.024046,0.014962,0.23403,-0.021559,0.057211
0.051321,0.025135,0.014916,0.23699,-0.011431,0.054798
0.050529,0.026239,0.014984,0.23899,-0.00063652,0.052745
0.049699,0.027298,0.015101,0.24016,0.01057,0.050903
0.048843,0.028295,0.015285,0.24044,0.021959,0.049378
0.047864,0.029318,0.015666,0.23979,0.033432,0.048247
0.046867,0.030257,0.016134,0.23819,0.044713,0.047682
0.045823,0.031132,0.016726,0.2357,0.055651,0.047631
0.044814,0.031889,0.017338,0.23237,0.066071,0.048149
0.043816,0.032553,0.017996,0.22832,0.075846,0.049112
0.042834,0.033128,0.018688,0.22369,0.084874,0.050442
0.041864,0.033626,0.019397,0.21861,0.093142,0.051954
0.040918,0.03405,0.020098,0.21325,0.10062,0.05346
0.040004,0.034409,0.020767,0.20779,0.10733,0.054867
0.039141,0.03471,0.021375,0.20241,0.11327,0.055959
0.03833,0.034966,0.021911,0.19724,0.11853,0.056652
0.03759,0.035187,0.022349,0.19244,0.12317,0.056836
0.036936,0.035379,0.022677,0.18811,0.12718,0.056508
0.036379,0.035556,0.022878,0.18434,0.13066,0.055631
0.035922,0.035724,0.022949,0.18113,0.13361,0.054215
0.035571,0.035889,0.022888,0.17851,0.13605,0.052276
0.03531,0.036055,0.022706,0.17641,0.13804,0.049886
0.035132,0.036222,0.022412,0.17477,0.13957,0.047058
0.035021,0.036389,0.022024,0.17353,0.14067,0.043856
0.034969,0.036551,0.021557,0.17261,0.14135,0.040359
0.034958,0.03671,0.021019,0.17193,0.14167,0.036555
0.034988,0.036856,0.020435,0.17145,0.1416,0.032584
0.035046,0.03699,0.019802,0.17109,0.14121,0.028379
0.035141,0.037106,0.019132,0.17085,0.14044,0.023995
0.03526,0.037202,0.018437,0.17068,0.13932,0.019439
0.035418,0.03727,0.017722,0.17062,0.13777,0.01472
0.035608,0.037311,0.016986,0.17064,0.13579,0.0098254
0.035836,0.037321,0.016237,0.17074,0.13336,0.0047531
0.036111,0.037293,0.015474,0.17095,0.13039,-0.00043351
0.03644,0.037222,0.014706,0.1713,0.12683,-0.0056844
0.036831,0.037103,0.01392,0.17178,0.12266,-0.011031
0.037294,0.036927,0.013139,0.17247,0.11779,-0.016305
0.037838,0.036684,0.012349,0.17335,0.1122,-0.02152
0.038477,0.036363,0.011576,0.17449,0.1058,-0.026473
0.039217,0.035953,0.010806,0.17587,0.098627,-0.031183
0.040059,0.035442,0.010056,0.1775,0.090663,-0.035462
0.041003,0.034819,0.0093327,0.17934,0.081927,-0.039251
0.042047,0.034073,0.0086587,0.18136,0.072473,-0.042348
0.043165,0.033201,0.0080205,0.18346,0.062411,-0.044779
0.044338,0.032203,0.0074335,0.18555,0.051868,-0.04643
0.045532,0.031089,0.0069032,0.1875,0.041003,-0.047267
0.046718,0.029875,0.0064369,0.18923,0.029985,-0.047323
0.047858,0.028589,0.0060299,0.19062,0.019021,-0.046637
0.048933,0.027257,0.0056972,0.19163,0.0082827,-0.045232
