0.21838,-0.30756,0.10186,0.21188,-0.21737,0.07918
0.23042,-0.30511,0.10936,0.22037,-0.21594,0.085078
0.24252,-0.30166,0.1166,0.22894,-0.21371,0.090828
0.25485,-0.29709,0.12343,0.23769,-0.21056,0.096279
0.26751,-0.29122,0.12989,0.24671,-0.20632,0.10143
0.28025,-0.28376,0.13624,0.25577,-0.20069,0.10657
0.29334,-0.27494,0.14193,0.2651,-0.19391,0.11115
0.30668,-0.26473,0.14686,0.27463,-0.18595,0.1151
0.32034,-0.25304,0.15079,0.2844,-0.17673,0.11821
0.33424,-0.23987,0.15363,0.29434,-0.16624,0.12043
0.34825,-0.22521,0.15528,0.30432,-0.15448,0.1217
0.3623,-0.20906,0.15555,0.31426,-0.14146,0.12187
0.37612,-0.19155,0.15458,0.32395,-0.12731,0.12111
0.38966,-0.17261,0.1522,0.33331,-0.112,0.1193
0.40257,-0.15238,0.14874,0.34206,-0.095657,0.11673
0.41473,-0.1308,0.14418,0.3501,-0.07831,0.11342
0.42549,-0.10786,0.13937,0.35686,-0.059951,0.11012
0.43482,-0.083738,0.13423,0.36241,-0.040816,0.10674
0.44253,-0.058612,0.12905,0.36663,-0.021105,0.10347
0.44837,-0.032553,0.12409,0.36938,-0.00090119,0.1005
0.4521,-0.0059229,0.1199,0.37055,0.0195,0.098176
0.45364,0.021068,0.11644,0.3701,0.039907,0.096517
0.45288,0.048027,0.11416,0.36802,0.060066,0.095757
0.44987,0.074569,0.11297,0.36437,0.079722,0.095789
0.44478,0.10029,0.11283,0.35929,0.098615,0.096565
0.43784,0.12491,0.11341,0.35296,0.11659,0.097806
0.42944,0.14812,0.11424,0.34568,0.13346,0.099161
0.42001,0.16963,0.11501,0.33775,0.14905,0.10039
0.41007,0.18934,0.11508,0.32956,0.1633,0.10104
0.40007,0.20719,0.11406,0.32144,0.17621,0.10082
0.39047,0.22322,0.11154,0.31373,0.1878,0.099431
0.38163,0.23736,0.10738,0.30669,0.19804,0.096788
0.37382,0.24972,0.10144,0.3005,0.20701,0.092794
0.36715,0.26029,0.093771,0.29524,0.2147,0.087474
0.36169,0.26913,0.084463,0.29095,0.22116,0.080899
0.35735,0.27628,0.073792,0.28752,0.22641,0.073268
0.35403,0.28179,0.061942,0.28488,0.23049,0.06471
0.35161,0.2857,0.049192,0.28292,0.23343,0.055429
0.34993,0.28811,0.035814,0.28149,0.23527,0.045634
0.34879,0.28917,0.021864,0.28046,0.23614,0.035364
0.3481,0.28892,0.0076471,0.27974,0.23603,0.024874
0.34768,0.28747,-0.0069722,0.27922,0.23504,0.014063
0.34746,0.28477,-0.021976,0.27887,0.23314,0.0029693
0.34736,0.28076,-0.037418,0.27862,0.23029,-0.008433
0.34736,0.27524,-0.053309,0.2785,0.22637,-0.020149
0.34734,0.26811,-0.06966,0.27844,0.22132,-0.032197
0.34721,0.25926,-0.086417,0.2784,0.21508,-0.044557
0.34701,0.24849,-0.10331,0.27842,0.20751,-0.05705
0.34669,0.23573,-0.12005,0.27848,0.19854,-0.069505
0.3462,0.22096,-0.1365,0.27855,0.18813,-0.08186
0.3457,0.20409,-0.15214,0.27874,0.1762,-0.093741
0.3451,0.18524,-0.16681,0.279,0.16279,-0.10507
0.34459,0.16438,-0.18001,0.27946,0.14783,-0.11545
0.34407,0.14169,-0.1916,0.28005,0.13143,-0.12485
0.34361,0.11735,-0.20147,0.28079,0.11366,-0.13296
0.34307,0.091558,-0.2092,0.28159,0.094656,-0.13967
0.34247,0.064589,-0.21463,0.28245,0.074587,-0.14472
0.34157,0.036784,-0.21786,0.28316,0.053701,-0.14816
0.34026,0.0085219,-0.21882,0.28361,0.032279,-0.14988
0.33834,-0.019835,-0.21757,0.28364,0.010609,-0.14992
0.33564,-0.047912,-0.21433,0.28308,-0.011006,-0.14839
0.33201,-0.075346,-0.20929,0.28178,-0.032253,-0.14545
0.32739,-0.10178,-0.20264,0.27971,-0.052835,-0.1412
