0.21606,-0.30831,0.10432,0.16392,-0.040563,0.090213
0.22807,-0.30593,0.11175,0.16348,-0.041256,0.091832
0.24016,-0.30257,0.11891,0.1631,-0.041681,0.093451
0.2525,-0.2981,0.12566,0.16287,-0.04175,0.094955
0.26517,-0.29234,0.13204,0.16283,-0.04135,0.096286
0.27796,-0.28501,0.13831,0.16286,-0.040141,0.097865
0.2911,-0.27632,0.14392,0.16314,-0.038504,0.099091
0.30452,-0.26625,0.14878,0.16367,-0.036418,0.099953
0.31828,-0.25472,0.15264,0.16448,-0.033866,0.10034
0.3323,-0.24171,0.15541,0.16553,-0.030856,0.10029
0.34646,-0.22721,0.15698,0.16676,-0.027403,0.099789
0.3607,-0.21123,0.15716,0.16812,-0.023538,0.098825
0.37474,-0.19389,0.15611,0.16947,-0.019373,0.097532
0.38853,-0.17513,0.15363,0.17077,-0.01494,0.095885
0.40174,-0.15505,0.15005,0.17187,-0.01034,0.094048
0.41423,-0.13361,0.14537,0.17273,-0.005636,0.092055
0.42536,-0.11076,0.14039,0.17297,-0.00070935,0.090518
0.4351,-0.086683,0.13508,0.17275,0.0041567,0.089157
0.44321,-0.061533,0.12972,0.1721,0.008795,0.087975
0.44947,-0.035373,0.12457,0.17102,0.013181,0.086976
0.45359,-0.008577,0.12018,0.16952,0.017209,0.086244
0.45547,0.018653,0.11656,0.16769,0.02085,0.085707
0.455,0.045897,0.11414,0.16556,0.02411,0.0854
0.45221,0.072752,0.11284,0.16321,0.026993,0.085247
0.44727,0.098795,0.11261,0.16072,0.02953,0.085242
0.44044,0.12373,0.11314,0.15817,0.031805,0.085329
0.43209,0.14724,0.11393,0.15568,0.033861,0.085471
0.42267,0.16902,0.11468,0.1533,0.035778,0.085706
0.41271,0.18896,0.11473,0.15118,0.037592,0.08599
0.40268,0.20702,0.11369,0.14938,0.039369,0.086346
0.39303,0.22321,0.11115,0.14799,0.041159,0.086748
0.38415,0.2375,0.10694,0.14702,0.042964,0.087233
0.3763,0.24998,0.10096,0.14647,0.044822,0.087752
0.36959,0.26064,0.093223,0.14627,0.04672,0.088262
0.3641,0.26954,0.083841,0.14637,0.048639,0.088721
0.35973,0.27672,0.073087,0.14662,0.050573,0.089095
0.35639,0.28223,0.06115,0.14696,0.052482,0.089306
0.35395,0.28613,0.04831,0.14731,0.054339,0.089324
0.35226,0.28848,0.034844,0.14759,0.056094,0.089152
0.35111,0.28948,0.02081,0.14782,0.057768,0.088722
0.35041,0.28913,0.0065164,0.14796,0.059292,0.088112
0.34998,0.28757,-0.0081719,0.14805,0.060706,0.087243
0.34975,0.28473,-0.023236,0.14813,0.061963,0.086154
0.34962,0.28057,-0.038728,0.14821,0.063075,0.084855
0.3496,0.27489,-0.054659,0.14838,0.063985,0.08334
0.34954,0.26758,-0.071037,0.14861,0.064705,0.081592
0.34937,0.25854,-0.087807,0.149,0.065203,0.079583
0.3491,0.24756,-0.10469,0.14952,0.065409,0.077343
0.34871,0.2346,-0.12141,0.1502,0.065268,0.074881
0.34815,0.21961,-0.13782,0.15106,0.064739,0.072135
0.34755,0.20252,-0.15338,0.15208,0.06372,0.069221
0.34685,0.18345,-0.16796,0.15327,0.06217,0.0661
0.34624,0.16239,-0.18104,0.15461,0.059991,0.062946
0.3456,0.1395,-0.19251,0.15611,0.057171,0.059729
0.345,0.11499,-0.20217,0.15773,0.053692,0.056635
0.34432,0.089034,-0.20973,0.15947,0.049539,0.053732
0.34357,0.061929,-0.21497,0.16127,0.044727,0.051217
0.3425,0.034015,-0.218,0.16311,0.039362,0.049103
0.34102,0.0056673,-0.21876,0.16491,0.03353,0.047513
0.33893,-0.02275,-0.21732,0.16661,0.02738,0.046505
0.33606,-0.050865,-0.21388,0.16818,0.02103,0.046062
0.33225,-0.078316,-0.20865,0.1696,0.014691,0.046171
0.32747,-0.10475,-0.20181,0.17087,0.0084735,0.046824
