0.098412,-0.050144,-0.006985,0.12628,-0.012626,0.033927
0.098412,-0.050144,-0.006985,0.12645,-0.01363,0.034992
0.098412,-0.050144,-0.006985,0.12664,-0.014413,0.036071
0.098412,-0.050144,-0.006985,0.12688,-0.014878,0.037091
0.098412,-0.050144,-0.006985,0.1272,-0.014955,0.037988
0.098412,-0.050144,-0.006985,0.12732,-0.014294,0.039265
0.098412,-0.050144,-0.006985,0.12753,-0.013247,0.040273
0.098412,-0.050144,-0.006985,0.12783,-0.011795,0.04101
0.098412,-0.050144,-0.006985,0.1282,-0.0098995,0.041396
0.098412,-0.050144,-0.006985,0.12862,-0.0075634,0.041465
0.098412,-0.050144,-0.006985,0.12904,-0.0047891,0.041213
0.098412,-0.050144,-0.006985,0.12941,-0.0015934,0.040637
0.098412,-0.050144,-0.006985,0.12967,0.0019527,0.039855
0.098412,-0.050144,-0.006985,0.12975,0.0058322,0.038863
0.098412,-0.050144,-0.006985,0.12958,0.009985,0.037797
0.098412,-0.050144,-0.006985,0.12913,0.014357,0.036691
0.098412,-0.050144,-0.006985,0.12798,0.019084,0.036207
0.098412,-0.050144,-0.006985,0.12639,0.023897,0.035994
0.098412,-0.050144,-0.006985,0.1244,0.028657,0.03605
0.098412,-0.050144,-0.006985,0.12204,0.033339,0.036377
0.098412,-0.050144,-0.006985,0.11936,0.037822,0.03701
0.098412,-0.050144,-0.006985,0.1164,0.042077,0.037919
0.098412,-0.050144,-0.006985,0.11322,0.046061,0.039097
0.098412,-0.050144,-0.006985,0.10988,0.049759,0.040497
0.098412,-0.050144,-0.006985,0.10645,0.053133,0.04208
0.098412,-0.050144,-0.006985,0.10297,0.056187,0.043806
0.098412,-0.050144,-0.006985,0.099541,0.058886,0.045619
0.098412,-0.050144,-0.006985,0.096238,0.061218,0.047468
0.098412,-0.050144,-0.006985,0.093174,0.063145,0.049283
0.098412,-0.050144,-0.006985,0.090414,0.064678,0.051021
0.098412,-0.050144,-0.006985,0.088066,0.065824,0.052598
0.098412,-0.050144,-0.006985,0.086177,0.066608,0.05399
0.098412,-0.050144,-0.006985,0.084792,0.067101,0.055122
0.098412,-0.050144,-0.006985,0.083862,0.067403,0.055971
0.098412,-0.050144,-0.006985,0.083368,0.067582,0.056507
0.098412,-0.050144,-0.006985,0.083195,0.067749,0.05673
0.098412,-0.050144,-0.006985,0.083261,0.067967,0.056626
0.098412,-0.050144,-0.006985,0.083473,0.068281,0.056211
0.098412,-0.050144,-0.006985,0.083755,0.0687,0.055518
0.098412,-0.050144,-0.006985,0.084057,0.069242,0.054541
0.098412,-0.050144,-0.006985,0.084356,0.069858,0.053354
0.098412,-0.050144,-0.006985,0.084634,0.070556,0.051933
0.098412,-0.050144,-0.006985,0.084926,0.07127,0.050327
0.098412,-0.050144,-0.006985,0.085217,0.07199,0.048561
0.098412,-0.050144,-0.006985,0.085576,0.07265,0.046645
0.098412,-0.050144,-0.006985,0.085979,0.073256,0.044582
0.098412,-0.050144,-0.006985,0.086485,0.07376,0.042371
0.098412,-0.050144,-0.006985,0.0871,0.074134,0.040023
0.098412,-0.050144,-0.006985,0.087828,0.07435,0.037563
0.098412,-0.050144,-0.006985,0.088699,0.074388,0.034941
0.098412,-0.050144,-0.006985,0.089727,0.074187,0.032242
0.098412,-0.050144,-0.006985,0.090929,0.073725,0.029427
0.098412,-0.050144,-0.006985,0.092342,0.072919,0.026606
0.098412,-0.050144,-0.006985,0.093999,0.071728,0.023735
0.098412,-0.050144,-0.006985,0.095917,0.070081,0.020918
0.098412,-0.050144,-0.006985,0.098107,0.067912,0.018198
0.098412,-0.050144,-0.006985,0.10056,0.065158,0.0157
0.098412,-0.050144,-0.006985,0.10321,0.06182,0.013414
0.098412,-0.050144,-0.006985,0.106,0.057892,0.011426
0.098412,-0.050144,-0.006985,0.10882,0.05344,0.0097946
0.098412,-0.050144,-0.006985,0.1116,0.048524,0.0085427
0.098412,-0.050144,-0.006985,0.11422,0.043274,0.00768
0.098412,-0.050144,-0.006985,0.11664,0.037785,0.0072574
