0.10547,-0.031504,0.015105,0.1153,-0.033664,0.041899
0.10547,-0.031504,0.015105,0.11534,-0.033767,0.041887
0.10547,-0.031504,0.015105,0.11538,-0.03387,0.041875
0.10547,-0.031504,0.015105,0.11542,-0.03398,0.041863
0.10547,-0.031504,0.015105,0.11546,-0.034083,0.041851
0.10547,-0.031504,0.015105,0.11546,-0.034092,0.04185
0.10547,-0.031504,0.015105,0.11547,-0.034122,0.041846
0.10547,-0.031504,0.015105,0.11549,-0.034174,0.04184
0.10547,-0.031504,0.015105,0.11552,-0.034251,0.041831
0.10547,-0.031504,0.015105,0.11556,-0.034352,0.041819
0.10547,-0.031504,0.015105,0.1156,-0.034471,0.041804
0.10547,-0.031504,0.015105,0.11565,-0.034605,0.041788
0.10547,-0.031504,0.015105,0.1157,-0.034749,0.04177
0.10547,-0.031504,0.015105,0.11576,-0.034908,0.04175
0.10547,-0.031504,0.015105,0.11582,-0.035071,0.04173
0.10547,-0.031504,0.015105,0.11588,-0.035234,0.041709
0.10547,-0.031504,0.015105,0.1159,-0.03528,0.041703
0.10547,-0.031504,0.015105,0.1159,-0.035294,0.041701
0.10547,-0.031504,0.015105,0.11591,-0.035304,0.0417
0.10547,-0.031504,0.015105,0.11591,-0.035314,0.041698
0.10547,-0.031504,0.015105,0.11592,-0.035328,0.041697
0.10547,-0.031504,0.015105,0.11593,-0.035365,0.041692
0.10547,-0.031504,0.015105,0.11595,-0.035414,0.041685
0.10547,-0.031504,0.015105,0.11597,-0.035484,0.041676
0.10547,-0.031504,0.015105,0.116,-0.03557,0.041665
0.10547,-0.031504,0.015105,0.11604,-0.035659,0.041653
0.10547,-0.031504,0.015105,0.11607,-0.035743,0.041641
0.10547,-0.031504,0.015105,0.11609,-0.035796,0.041634
0.10547,-0.031504,0.015105,0.11609,-0.035812,0.041632
0.10547,-0.031504,0.015105,0.11608,-0.035772,0.041637
0.10547,-0.031504,0.015105,0.11604,-0.035672,0.041651
0.10547,-0.031504,0.015105,0.11598,-0.035495,0.041675
0.10547,-0.031504,0.015105,0.11589,-0.035242,0.041708
0.10547,-0.031504,0.015105,0.11576,-0.034913,0.04175
0.10547,-0.031504,0.015105,0.11562,-0.034521,0.041798
0.10547,-0.031504,0.015105,0.11545,-0.034074,0.041852
0.10547,-0.031504,0.015105,0.11527,-0.033593,0.041907
0.10547,-0.031504,0.015105,0.11508,-0.033094,0.041961
0.10547,-0.031504,0.015105,0.11489,-0.032585,0.042013
0.10547,-0.031504,0.015105,0.11469,-0.032078,0.042063
0.10547,-0.031504,0.015105,0.11449,-0.031581,0.042109
0.10547,-0.031504,0.015105,0.1143,-0.031095,0.042151
0.10547,-0.031504,0.015105,0.11411,-0.030632,0.042188
0.10547,-0.031504,0.015105,0.11393,-0.03019,0.042222
0.10547,-0.031504,0.015105,0.11377,-0.029785,0.042251
0.10547,-0.031504,0.015105,0.11362,-0.029414,0.042275
0.10547,-0.031504,0.015105,0.11349,-0.029095,0.042295
0.10547,-0.031504,0.015105,0.11337,-0.02883,0.042311
0.10547,-0.031504,0.015105,0.11329,-0.028627,0.042323
0.10547,-0.031504,0.015105,0.11323,-0.028496,0.04233
0.10547,-0.031504,0.015105,0.11321,-0.028442,0.042333
0.10547,-0.031504,0.015105,0.11323,-0.028474,0.042331
0.10547,-0.031504,0.015105,0.11327,-0.028591,0.042325
0.10547,-0.031504,0.015105,0.11336,-0.0288,0.042313
0.10547,-0.031504,0.015105,0.11348,-0.029091,0.042296
0.10547,-0.031504,0.015105,0.11364,-0.029461,0.042272
0.10547,-0.031504,0.015105,0.11382,-0.029903,0.042242
0.10547,-0.031504,0.015105,0.11402,-0.030388,0.042207
0.10547,-0.031504,0.015105,0.11422,-0.030898,0.042167
0.10547,-0.031504,0.015105,0.11442,-0.031397,0.042125
0.10547,-0.031504,0.015105,0.11461,-0.031879,0.042082
0.10547,-0.031504,0.015105,0.11478,-0.032306,0.042041
0.10547,-0.031504,0.015105,0.11492,-0.032679,0.042004
