0.14432,-0.016823,0.028869,0.18853,-0.17333,0.068769
0.1446,-0.017639,0.030213,0.19527,-0.17324,0.073249
0.14492,-0.018197,0.031574,0.20213,-0.17247,0.07763
0.14528,-0.01839,0.03286,0.20923,-0.1709,0.081776
0.1457,-0.018151,0.034002,0.21661,-0.16839,0.085673
0.14591,-0.017157,0.035451,0.22406,-0.16463,0.089617
0.14621,-0.015727,0.036596,0.23183,-0.15986,0.093062
0.14658,-0.013837,0.037432,0.23987,-0.15405,0.095947
0.14701,-0.011457,0.037865,0.2482,-0.14712,0.098083
0.14746,-0.0085883,0.037932,0.25676,-0.13905,0.099419
0.14789,-0.0052398,0.037629,0.26546,-0.12982,0.099891
0.14825,-0.0014359,0.036955,0.27423,-0.11944,0.099381
0.14846,0.0027414,0.036043,0.28287,-0.10799,0.09803
0.14847,0.0072716,0.034887,0.29131,-0.095442,0.095736
0.14821,0.012079,0.033645,0.29931,-0.08187,0.092752
0.14763,0.017101,0.032354,0.30673,-0.067282,0.089107
0.14633,0.022421,0.031644,0.31306,-0.051639,0.085516
0.14457,0.027794,0.031209,0.31833,-0.035158,0.081877
0.1424,0.033078,0.031057,0.32242,-0.018038,0.078392
0.13986,0.038248,0.031193,0.32517,-0.00036408,0.075227
0.137,0.043181,0.031666,0.32649,0.017549,0.072715
0.13386,0.04785,0.032436,0.32633,0.035492,0.07088
0.13052,0.052211,0.0335,0.32468,0.053187,0.069922
0.12702,0.056257,0.034802,0.32162,0.070375,0.06974
0.12343,0.059953,0.036299,0.3173,0.086804,0.070278
0.1198,0.063312,0.037934,0.3119,0.10233,0.071283
0.1162,0.066302,0.039636,0.30566,0.11679,0.07244
0.11273,0.068918,0.041359,0.29886,0.13006,0.073547
0.10947,0.071123,0.043016,0.29184,0.1421,0.0742
0.1065,0.072933,0.044565,0.28483,0.15291,0.074173
0.10391,0.074356,0.045927,0.27813,0.16254,0.073209
0.10178,0.075409,0.047085,0.27195,0.17096,0.071243
0.10013,0.076157,0.047976,0.26643,0.17824,0.068196
0.098953,0.076683,0.048584,0.26165,0.1844,0.064091
0.098228,0.07705,0.048889,0.25766,0.18946,0.058988
0.097853,0.077359,0.048904,0.25438,0.19345,0.053056
0.097758,0.077666,0.048613,0.25177,0.19641,0.046394
0.097853,0.078019,0.048035,0.24974,0.19839,0.039165
0.098066,0.078422,0.047204,0.24819,0.19942,0.03154
0.098338,0.078902,0.046104,0.24698,0.19964,0.023543
0.098648,0.079411,0.044816,0.24607,0.19903,0.01539
0.098965,0.079966,0.043302,0.24533,0.1977,0.0069878
0.099319,0.080505,0.041608,0.24473,0.19563,-0.00162
0.099685,0.081022,0.039756,0.24422,0.19279,-0.010448
0.10013,0.081457,0.037753,0.2438,0.1891,-0.019495
0.10062,0.081813,0.035594,0.24342,0.18451,-0.028775
0.10122,0.082051,0.033275,0.24304,0.17899,-0.038273
0.10192,0.082132,0.030809,0.2427,0.17241,-0.047845
0.10274,0.082023,0.028217,0.2424,0.16472,-0.057356
0.10369,0.081698,0.025445,0.24212,0.1559,-0.066778
0.10481,0.081086,0.022584,0.24198,0.14587,-0.075806
0.10611,0.080159,0.019594,0.24192,0.13467,-0.084397
0.10762,0.078823,0.016597,0.24207,0.12223,-0.092232
0.10938,0.077041,0.013552,0.24236,0.10863,-0.099302
0.1114,0.074744,0.010577,0.24282,0.093942,-0.10535
0.11369,0.071869,0.0077183,0.24337,0.078259,-0.1103
0.11625,0.068367,0.0051194,0.244,0.061717,-0.11392
0.119,0.064247,0.0027717,0.24453,0.04452,-0.11627
0.12189,0.059524,0.00077209,0.24489,0.026895,-0.11725
0.1248,0.054277,-0.00081952,0.24493,0.0090815,-0.11687
0.12765,0.048588,-0.001986,0.24451,-0.0086697,-0.11523
0.13034,0.042601,-0.0027234,0.24351,-0.026093,-0.11243
0.13281,0.036427,-0.0029909,0.2419,-0.042942,-0.10856
