0,0.039179,0.14433,0.10952,0.018252,0.14014
0,0.039179,0.14433,0.10772,0.01695,0.14096
0,0.039179,0.14433,0.10587,0.015772,0.14177
0,0.039179,0.14433,0.10411,0.014772,0.14253
0,0.039179,0.14433,0.1025,0.014082,0.14316
0,0.039179,0.14433,0.10111,0.014148,0.14424
0,0.039179,0.14433,0.099957,0.014427,0.1451
0,0.039179,0.14433,0.099043,0.014918,0.14576
0,0.039179,0.14433,0.098457,0.015645,0.14617
0,0.039179,0.14433,0.098171,0.016582,0.14637
0,0.039179,0.14433,0.098163,0.017731,0.14635
0,0.039179,0.14433,0.098422,0.019075,0.14612
0,0.039179,0.14433,0.098813,0.020527,0.14577
0,0.039179,0.14433,0.099349,0.022057,0.14529
0,0.039179,0.14433,0.099872,0.02361,0.14479
0,0.039179,0.14433,0.10036,0.025163,0.14426
0,0.039179,0.14433,0.10061,0.027094,0.14438
0,0.039179,0.14433,0.10061,0.029001,0.14473
0,0.039179,0.14433,0.10036,0.030711,0.14529
0,0.039179,0.14433,0.099865,0.032209,0.14602
0,0.039179,0.14433,0.099061,0.033415,0.14694
0,0.039179,0.14433,0.098047,0.034279,0.148
0,0.039179,0.14433,0.096811,0.034841,0.14919
0,0.039179,0.14433,0.095437,0.035086,0.15046
0,0.039179,0.14433,0.093983,0.035058,0.15178
0,0.039179,0.14433,0.092561,0.034864,0.15313
0,0.039179,0.14433,0.091295,0.034578,0.15451
0,0.039179,0.14433,0.09019,0.03433,0.15589
0,0.039179,0.14433,0.089402,0.034213,0.15728
0,0.039179,0.14433,0.088946,0.034337,0.15869
0,0.039179,0.14433,0.088878,0.034766,0.16007
0,0.039179,0.14433,0.089124,0.035567,0.16143
0,0.039179,0.14433,0.089638,0.036762,0.16269
0,0.039179,0.14433,0.090298,0.038357,0.16381
0,0.039179,0.14433,0.091014,0.0403,0.16473
0,0.039179,0.14433,0.091626,0.042543,0.1654
0,0.039179,0.14433,0.092099,0.045011,0.16576
0,0.039179,0.14433,0.092374,0.047635,0.1658
0,0.039179,0.14433,0.092422,0.050353,0.16553
0,0.039179,0.14433,0.092314,0.053134,0.16494
0,0.039179,0.14433,0.092035,0.055893,0.16408
0,0.039179,0.14433,0.091694,0.05865,0.16294
0,0.039179,0.14433,0.091363,0.061334,0.16157
0,0.039179,0.14433,0.091074,0.063947,0.15999
0,0.039179,0.14433,0.090937,0.066404,0.15821
0,0.039179,0.14433,0.090983,0.068736,0.15625
0,0.039179,0.14433,0.091322,0.070857,0.1541
0,0.039179,0.14433,0.091937,0.072754,0.15178
0,0.039179,0.14433,0.09287,0.07438,0.14932
0,0.039179,0.14433,0.094184,0.07571,0.14667
0,0.039179,0.14433,0.095841,0.076684,0.14392
0,0.039179,0.14433,0.097875,0.077267,0.14103
0,0.039179,0.14433,0.10022,0.077403,0.13811
0,0.039179,0.14433,0.1029,0.077052,0.13512
0,0.039179,0.14433,0.1058,0.076196,0.13218
0,0.039179,0.14433,0.1089,0.07481,0.12933
0,0.039179,0.14433,0.11208,0.07286,0.12671
0,0.039179,0.14433,0.11525,0.070445,0.1243
0,0.039179,0.14433,0.11829,0.067597,0.1222
0,0.039179,0.14433,0.12111,0.064446,0.12044
0,0.039179,0.14433,0.12367,0.061048,0.11905
0,0.039179,0.14433,0.12591,0.057598,0.11801
0,0.039179,0.14433,0.12786,0.054153,0.11735
