0.012789,-0.10219,-0.048196,0.072079,-0.091223,-0.036666
0.012789,-0.10219,-0.048196,0.072091,-0.091492,-0.036735
0.012789,-0.10219,-0.048196,0.072096,-0.091602,-0.036763
0.012789,-0.10219,-0.048196,0.072093,-0.091539,-0.036747
0.012789,-0.10219,-0.048196,0.072082,-0.091287,-0.036682
0.012789,-0.10219,-0.048196,0.072057,-0.090743,-0.036541
0.012789,-0.10219,-0.048196,0.072023,-0.090038,-0.036356
0.012789,-0.10219,-0.048196,0.071979,-0.089164,-0.036125
0.012789,-0.10219,-0.048196,0.071923,-0.088123,-0.035846
0.012789,-0.10219,-0.048196,0.071854,-0.086911,-0.035516
0.012789,-0.10219,-0.048196,0.07177,-0.085534,-0.035136
0.012789,-0.10219,-0.048196,0.071669,-0.084008,-0.034705
0.012789,-0.10219,-0.048196,0.071551,-0.082353,-0.034229
0.012789,-0.10219,-0.048196,0.071414,-0.080569,-0.033704
0.012789,-0.10219,-0.048196,0.071254,-0.07866,-0.033128
0.012789,-0.10219,-0.048196,0.071071,-0.07663,-0.0325
0.012789,-0.10219,-0.048196,0.070852,-0.074398,-0.03179
0.012789,-0.10219,-0.048196,0.070599,-0.072031,-0.031015
0.012789,-0.10219,-0.048196,0.070312,-0.069561,-0.030179
0.012789,-0.10219,-0.048196,0.069986,-0.066981,-0.029277
0.012789,-0.10219,-0.048196,0.069621,-0.064322,-0.028314
0.012789,-0.10219,-0.048196,0.069215,-0.061601,-0.027293
0.012789,-0.10219,-0.048196,0.068766,-0.058835,-0.026214
0.012789,-0.10219,-0.048196,0.068277,-0.056049,-0.025086
0.012789,-0.10219,-0.048196,0.067748,-0.053275,-0.023916
0.012789,-0.10219,-0.048196,0.067183,-0.050534,-0.022712
0.012789,-0.10219,-0.048196,0.06659,-0.047869,-0.021492
0.012789,-0.10219,-0.048196,0.20912,0.10779,0.054753
0.012789,-0.10219,-0.048196,0.2037,0.11383,0.055842
0.012789,-0.10219,-0.048196,0.19849,0.11917,0.056526
0.012789,-0.10219,-0.048196,0.19365,0.12388,0.056694
0.012789,-0.10219,-0.048196,0.18928,0.12796,0.056344
0.012789,-0.10219,-0.048196,0.18547,0.13148,0.055436
0.012789,-0.10219,-0.048196,0.18222,0.13448,0.053981
0.012789,-0.10219,-0.048196,0.17957,0.13695,0.051997
0.012789,-0.10219,-0.048196,0.17743,0.13895,0.049556
0.012789,-0.10219,-0.048196,0.17577,0.14049,0.046673
0.012789,-0.10219,-0.048196,0.1745,0.1416,0.043414
0.012789,-0.10219,-0.048196,0.17357,0.14227,0.039858
0.012789,-0.10219,-0.048196,0.17287,0.14257,0.035994
0.012789,-0.10219,-0.048196,0.17237,0.14247,0.031964
0.012789,-0.10219,-0.048196,0.17199,0.14205,0.027701
0.012789,-0.10219,-0.048196,0.17174,0.14125,0.023258
0.012789,-0.10219,-0.048196,0.17156,0.14008,0.018645
0.012789,-0.10219,-0.048196,0.17149,0.13848,0.013868
0.012789,-0.10219,-0.048196,0.17149,0.13645,0.0089169
0.012789,-0.10219,-0.048196,0.17157,0.13396,0.0037886
0.012789,-0.10219,-0.048196,0.17177,0.13092,-0.0014519
0.012789,-0.10219,-0.048196,0.17209,0.12729,-0.0067537
0.012789,-0.10219,-0.048196,0.17255,0.12304,-0.012147
0.012789,-0.10219,-0.048196,0.17322,0.11808,-0.017463
0.012789,-0.10219,-0.048196,0.17407,0.1124,-0.022713
0.012789,-0.10219,-0.048196,0.17519,0.10591,-0.027692
0.012789,-0.10219,-0.048196,0.17654,0.098639,-0.032423
0.012789,-0.10219,-0.048196,0.17815,0.090574,-0.036713
0.012789,-0.10219,-0.048196,0.17996,0.081737,-0.040505
0.012789,-0.10219,-0.048196,0.18195,0.072182,-0.043597
0.012789,-0.10219,-0.048196,0.18402,0.06202,-0.046015
0.012789,-0.10219,-0.048196,0.18607,0.051381,-0.047646
0.012789,-0.10219,-0.048196,0.18799,0.040424,-0.048457
0.012789,-0.10219,-0.048196,0.18968,0.029318,-0.048482
0.012789,-0.10219,-0.048196,0.19103,0.018269,-0.047759
0.012789,-0.10219,-0.048196,0.192,0.0074528,-0.046313
