0,-0.16264,0.16301,0.043767,-0.088695,0.17404
0,-0.16264,0.16301,0.043483,-0.088245,0.17401
0,-0.16264,0.16301,0.043094,-0.087633,0.17396
0,-0.16264,0.16301,0.042741,-0.087087,0.17391
0,-0.16264,0.16301,0.042392,-0.086553,0.17386
0,-0.16264,0.16301,0.042023,-0.085997,0.1738
0,-0.16264,0.16301,0.041577,-0.085336,0.17372
0,-0.16264,0.16301,0.041183,-0.084761,0.17364
0,-0.16264,0.16301,0.040956,-0.084434,0.17359
0,-0.16264,0.16301,0.040723,-0.084101,0.17354
0,-0.16264,0.16301,0.040586,-0.083905,0.17351
0,-0.16264,0.16301,0.040505,-0.083791,0.17349
0,-0.16264,0.16301,0.040434,-0.083692,0.17348
0,-0.16264,0.16301,0.040421,-0.083672,0.17348
0,-0.16264,0.16301,0.040402,-0.083646,0.17347
0,-0.16264,0.16301,0.040374,-0.083607,0.17346
0,-0.16264,0.16301,0.040205,-0.083369,0.17343
0,-0.16264,0.16301,0.039965,-0.083036,0.17337
0,-0.16264,0.16301,0.039687,-0.082653,0.1733
0,-0.16264,0.16301,0.039363,-0.082213,0.17322
0,-0.16264,0.16301,0.038981,-0.0817,0.17311
0,-0.16264,0.16301,0.038648,-0.081259,0.17302
0,-0.16264,0.16301,0.03827,-0.080765,0.17291
0,-0.16264,0.16301,0.0379,-0.080288,0.1728
0,-0.16264,0.16301,0.037543,-0.079834,0.17269
0,-0.16264,0.16301,0.037223,-0.079433,0.17259
0,-0.16264,0.16301,0.03697,-0.079118,0.1725
0,-0.16264,0.16301,0.036767,-0.078868,0.17244
0,-0.16264,0.16301,0.036653,-0.078729,0.1724
0,-0.16264,0.16301,0.036617,-0.078686,0.17238
0,-0.16264,0.16301,0.036662,-0.07874,0.1724
0,-0.16264,0.16301,0.036754,-0.078852,0.17243
0,-0.16264,0.16301,0.036868,-0.078993,0.17247
0,-0.16264,0.16301,0.03696,-0.079106,0.1725
0,-0.16264,0.16301,0.037003,-0.079159,0.17251
0,-0.16264,0.16301,0.036954,-0.079099,0.1725
0,-0.16264,0.16301,0.036812,-0.078924,0.17245
0,-0.16264,0.16301,0.03657,-0.078628,0.17237
0,-0.16264,0.16301,0.03623,-0.078217,0.17225
0,-0.16264,0.16301,0.035813,-0.07772,0.1721
0,-0.16264,0.16301,0.035328,-0.077153,0.17192
0,-0.16264,0.16301,0.0348,-0.076547,0.17171
0,-0.16264,0.16301,0.034267,-0.075948,0.1715
0,-0.16264,0.16301,0.033734,-0.075361,0.17128
0,-0.16264,0.16301,0.033238,-0.074826,0.17106
0,-0.16264,0.16301,0.032786,-0.074348,0.17086
0,-0.16264,0.16301,0.032421,-0.073968,0.1707
0,-0.16264,0.16301,0.032143,-0.073682,0.17057
0,-0.16264,0.16301,0.031975,-0.073512,0.17049
0,-0.16264,0.16301,0.03194,-0.073476,0.17047
0,-0.16264,0.16301,0.032046,-0.073584,0.17052
0,-0.16264,0.16301,0.032315,-0.073859,0.17065
0,-0.16264,0.16301,0.032754,-0.074314,0.17085
0,-0.16264,0.16301,0.03338,-0.074978,0.17112
0,-0.16264,0.16301,0.034176,-0.075847,0.17146
0,-0.16264,0.16301,0.035163,-0.076963,0.17185
0,-0.16264,0.16301,0.036339,-0.078348,0.17229
0,-0.16264,0.16301,0.037627,-0.07994,0.17272
0,-0.16264,0.16301,0.038877,-0.081561,0.17309
0,-0.16264,0.16301,0.040253,-0.083438,0.17344
0,-0.16264,0.16301,0.041628,-0.085411,0.17373
0,-0.16264,0.16301,0.042765,-0.087123,0.17392
0,-0.16264,0.16301,0.04396,-0.089007,0.17406
