0,-0.14034,0.16397,0.039204,-0.079526,0.17315
0,-0.14034,0.16397,0.039009,-0.079181,0.17309
0,-0.14034,0.16397,0.038783,-0.078782,0.17302
0,-0.14034,0.16397,0.038536,-0.078355,0.17294
0,-0.14034,0.16397,0.038319,-0.077982,0.17287
0,-0.14034,0.16397,0.038013,-0.077465,0.17277
0,-0.14034,0.16397,0.037728,-0.076989,0.17267
0,-0.14034,0.16397,0.037469,-0.076561,0.17258
0,-0.14034,0.16397,0.037255,-0.076214,0.1725
0,-0.14034,0.16397,0.037087,-0.075942,0.17243
0,-0.14034,0.16397,0.036957,-0.075734,0.17239
0,-0.14034,0.16397,0.036866,-0.075588,0.17235
0,-0.14034,0.16397,0.036793,-0.075472,0.17232
0,-0.14034,0.16397,0.036746,-0.075398,0.1723
0,-0.14034,0.16397,0.036694,-0.075316,0.17228
0,-0.14034,0.16397,0.036634,-0.075222,0.17226
0,-0.14034,0.16397,0.036474,-0.074971,0.1722
0,-0.14034,0.16397,0.036265,-0.074647,0.17211
0,-0.14034,0.16397,0.036034,-0.074292,0.17202
0,-0.14034,0.16397,0.03578,-0.073906,0.17192
0,-0.14034,0.16397,0.035499,-0.073485,0.1718
0,-0.14034,0.16397,0.035219,-0.073072,0.17168
0,-0.14034,0.16397,0.03493,-0.07265,0.17155
0,-0.14034,0.16397,0.034656,-0.072257,0.17143
0,-0.14034,0.16397,0.034404,-0.071898,0.17131
0,-0.14034,0.16397,0.034185,-0.07159,0.17121
0,-0.14034,0.16397,0.03402,-0.071361,0.17113
0,-0.14034,0.16397,0.033894,-0.071186,0.17107
0,-0.14034,0.16397,0.033836,-0.071106,0.17104
0,-0.14034,0.16397,0.033836,-0.071106,0.17104
0,-0.14034,0.16397,0.033896,-0.07119,0.17107
0,-0.14034,0.16397,0.033987,-0.071315,0.17112
0,-0.14034,0.16397,0.034087,-0.071453,0.17116
0,-0.14034,0.16397,0.034159,-0.071554,0.1712
0,-0.14034,0.16397,0.034185,-0.071591,0.17121
0,-0.14034,0.16397,0.034133,-0.071517,0.17118
0,-0.14034,0.16397,0.033999,-0.071332,0.17112
0,-0.14034,0.16397,0.03378,-0.07103,0.17102
0,-0.14034,0.16397,0.033477,-0.070617,0.17087
0,-0.14034,0.16397,0.033107,-0.070122,0.17069
0,-0.14034,0.16397,0.03268,-0.069562,0.17047
0,-0.14034,0.16397,0.032216,-0.068965,0.17023
0,-0.14034,0.16397,0.031739,-0.068367,0.16998
0,-0.14034,0.16397,0.031259,-0.067778,0.16972
0,-0.14034,0.16397,0.030808,-0.067237,0.16947
0,-0.14034,0.16397,0.03039,-0.066747,0.16923
0,-0.14034,0.16397,0.03004,-0.066345,0.16903
0,-0.14034,0.16397,0.029758,-0.066026,0.16887
0,-0.14034,0.16397,0.029563,-0.065807,0.16875
0,-0.14034,0.16397,0.02947,-0.065704,0.1687
0,-0.14034,0.16397,0.029488,-0.065724,0.16871
0,-0.14034,0.16397,0.029631,-0.065883,0.16879
0,-0.14034,0.16397,0.029906,-0.066193,0.16895
0,-0.14034,0.16397,0.030328,-0.066675,0.1692
0,-0.14034,0.16397,0.030888,-0.067333,0.16951
0,-0.14034,0.16397,0.031596,-0.06819,0.1699
0,-0.14034,0.16397,0.032436,-0.069247,0.17035
0,-0.14034,0.16397,0.033376,-0.070482,0.17082
0,-0.14034,0.16397,0.034371,-0.071852,0.1713
0,-0.14034,0.16397,0.035395,-0.073331,0.17175
0,-0.14034,0.16397,0.036419,-0.074886,0.17218
0,-0.14034,0.16397,0.037374,-0.076407,0.17254
0,-0.14034,0.16397,0.03822,-0.077814,0.17284
