0.12017,-0.074339,0.01397,0.12884,-0.075506,0.040375
0.12017,-0.074339,0.01397,0.12888,-0.075671,0.040364
0.12017,-0.074339,0.01397,0.12892,-0.075832,0.040353
0.12017,-0.074339,0.01397,0.12896,-0.075992,0.040343
0.12017,-0.074339,0.01397,0.12899,-0.076132,0.040333
0.12017,-0.074339,0.01397,0.129,-0.076163,0.040331
0.12017,-0.074339,0.01397,0.129,-0.076198,0.040328
0.12017,-0.074339,0.01397,0.12901,-0.076238,0.040325
0.12017,-0.074339,0.01397,0.12902,-0.07628,0.040322
0.12017,-0.074339,0.01397,0.12904,-0.076326,0.040319
0.12017,-0.074339,0.01397,0.12905,-0.076368,0.040316
0.12017,-0.074339,0.01397,0.12905,-0.076403,0.040314
0.12017,-0.074339,0.01397,0.12906,-0.076432,0.040311
0.12017,-0.074339,0.01397,0.12907,-0.076456,0.04031
0.12017,-0.074339,0.01397,0.12907,-0.076471,0.040309
0.12017,-0.074339,0.01397,0.12907,-0.076474,0.040308
0.12017,-0.074339,0.01397,0.12904,-0.076365,0.040316
0.12017,-0.074339,0.01397,0.12901,-0.076225,0.040326
0.12017,-0.074339,0.01397,0.12898,-0.076087,0.040336
0.12017,-0.074339,0.01397,0.12895,-0.075954,0.040345
0.12017,-0.074339,0.01397,0.12892,-0.075835,0.040353
0.12017,-0.074339,0.01397,0.1289,-0.075746,0.040359
0.12017,-0.074339,0.01397,0.12888,-0.075676,0.040364
0.12017,-0.074339,0.01397,0.12887,-0.075633,0.040367
0.12017,-0.074339,0.01397,0.12886,-0.075609,0.040368
0.12017,-0.074339,0.01397,0.12886,-0.075589,0.040369
0.12017,-0.074339,0.01397,0.12885,-0.075562,0.040371
0.12017,-0.074339,0.01397,0.12884,-0.075504,0.040375
0.12017,-0.074339,0.01397,0.12881,-0.075407,0.040381
0.12017,-0.074339,0.01397,0.12878,-0.075257,0.04039
0.12017,-0.074339,0.01397,0.12873,-0.075048,0.040403
0.12017,-0.074339,0.01397,0.12866,-0.074775,0.040419
0.12017,-0.074339,0.01397,0.12858,-0.074438,0.040438
0.12017,-0.074339,0.01397,0.12848,-0.074043,0.040458
0.12017,-0.074339,0.01397,0.12836,-0.073603,0.04048
0.12017,-0.074339,0.01397,0.12824,-0.073126,0.0405
0.12017,-0.074339,0.01397,0.12811,-0.072632,0.04052
0.12017,-0.074339,0.01397,0.12798,-0.072131,0.040537
0.12017,-0.074339,0.01397,0.12785,-0.071634,0.040552
0.12017,-0.074339,0.01397,0.16037,-0.057343,0.15503
0.12017,-0.074339,0.01397,0.16057,-0.054482,0.15668
0.12017,-0.074339,0.01397,0.16038,-0.051766,0.15797
0.12017,-0.074339,0.01397,0.15992,-0.049248,0.15894
0.12017,-0.074339,0.01397,0.15923,-0.046909,0.1596
0.12017,-0.074339,0.01397,0.15848,-0.044816,0.15992
0.12017,-0.074339,0.01397,0.15769,-0.042943,0.15991
0.12017,-0.074339,0.01397,0.12693,-0.068298,0.040589
0.12017,-0.074339,0.01397,0.12685,-0.068034,0.040587
0.12017,-0.074339,0.01397,0.12679,-0.067827,0.040585
0.12017,-0.074339,0.01397,0.12675,-0.067685,0.040584
0.12017,-0.074339,0.01397,0.12673,-0.06762,0.040583
0.12017,-0.074339,0.01397,0.12673,-0.067637,0.040583
0.12017,-0.074339,0.01397,0.12677,-0.067748,0.040585
0.12017,-0.074339,0.01397,0.12683,-0.067956,0.040587
0.12017,-0.074339,0.01397,0.12692,-0.068261,0.040589
0.12017,-0.074339,0.01397,0.12703,-0.068661,0.04059
0.12017,-0.074339,0.01397,0.12717,-0.069156,0.04059
0.12017,-0.074339,0.01397,0.12733,-0.069717,0.040587
0.12017,-0.074339,0.01397,0.1275,-0.070325,0.040579
0.12017,-0.074339,0.01397,0.12767,-0.070944,0.040569
0.12017,-0.074339,0.01397,0.12783,-0.071559,0.040554
0.12017,-0.074339,0.01397,0.12798,-0.072125,0.040537
0.12017,-0.074339,0.01397,0.12812,-0.072637,0.04052
