0.029399,0.13274,0.093686,0.11874,0.018817,0.053986
0.029399,0.13274,0.093686,0.11828,0.018209,0.055218
0.029399,0.13274,0.093686,0.11776,0.017903,0.05643
0.029399,0.13274,0.093686,0.11722,0.017903,0.057571
0.029399,0.13274,0.093686,0.11668,0.018156,0.058597
0.029399,0.13274,0.093686,0.11602,0.018922,0.059717
0.029399,0.13274,0.093686,0.1154,0.019985,0.060626
0.029399,0.13274,0.093686,0.11481,0.021343,0.061327
0.029399,0.13274,0.093686,0.11429,0.023002,0.061761
0.029399,0.13274,0.093686,0.1138,0.024949,0.061963
0.029399,0.13274,0.093686,0.11333,0.027168,0.061938
0.029399,0.13274,0.093686,0.11285,0.029633,0.061694
0.029399,0.13274,0.093686,0.11232,0.032272,0.061337
0.029399,0.13274,0.093686,0.11172,0.035062,0.060867
0.029399,0.13274,0.093686,0.11098,0.037945,0.060401
0.029399,0.13274,0.093686,0.11012,0.040834,0.059966
0.029399,0.13274,0.093686,0.10889,0.043853,0.059887
0.029399,0.13274,0.093686,0.10743,0.04687,0.060015
0.029399,0.13274,0.093686,0.10576,0.049761,0.060369
0.029399,0.13274,0.093686,0.10403,0.052271,0.060964
0.029399,0.13274,0.093686,0.10216,0.054548,0.0618
0.029399,0.13274,0.093686,0.10025,0.056498,0.062844
0.029399,0.13274,0.093686,0.098233,0.058271,0.064066
0.029399,0.13274,0.093686,0.096174,0.059796,0.065425
0.029399,0.13274,0.093686,0.094121,0.06107,0.066875
0.029399,0.13274,0.093686,0.092103,0.062134,0.068349
0.029399,0.13274,0.093686,0.090173,0.063011,0.06978
0.029399,0.13274,0.093686,0.088335,0.063757,0.071124
0.029399,0.13274,0.093686,0.086649,0.064406,0.072308
0.029399,0.13274,0.093686,0.085126,0.065001,0.073303
0.029399,0.13274,0.093686,0.083787,0.065589,0.074066
0.029399,0.13274,0.093686,0.082626,0.066196,0.074599
0.029399,0.13274,0.093686,0.081644,0.066854,0.074884
0.029399,0.13274,0.093686,0.080822,0.067582,0.074932
0.029399,0.13274,0.093686,0.080155,0.068378,0.074751
0.029399,0.13274,0.093686,0.0796,0.069255,0.074371
0.029399,0.13274,0.093686,0.079161,0.070201,0.073792
0.029399,0.13274,0.093686,0.07882,0.071208,0.073037
0.029399,0.13274,0.093686,0.078566,0.072254,0.07213
0.029399,0.13274,0.093686,0.078397,0.073344,0.07106
0.029399,0.13274,0.093686,0.078304,0.074429,0.069882
0.029399,0.13274,0.093686,0.078294,0.075525,0.068564
0.029399,0.13274,0.093686,0.078381,0.076589,0.067136
0.029399,0.13274,0.093686,0.078563,0.077613,0.065605
0.029399,0.13274,0.093686,0.078879,0.078553,0.063981
0.029399,0.13274,0.093686,0.079327,0.079415,0.062253
0.029399,0.13274,0.093686,0.079941,0.080162,0.060423
0.029399,0.13274,0.093686,0.080741,0.080769,0.058499
0.029399,0.13274,0.093686,0.081747,0.0812,0.056496
0.029399,0.13274,0.093686,0.082993,0.081439,0.054374
0.029399,0.13274,0.093686,0.084502,0.081416,0.052193
0.029399,0.13274,0.093686,0.086286,0.081112,0.049925
0.029399,0.13274,0.093686,0.088366,0.080445,0.047645
0.029399,0.13274,0.093686,0.090736,0.079393,0.045327
0.029399,0.13274,0.093686,0.093362,0.077911,0.043045
0.029399,0.13274,0.093686,0.09622,0.075957,0.040826
0.029399,0.13274,0.093686,0.099236,0.07351,0.038779
0.029399,0.13274,0.093686,0.10233,0.070613,0.036888
0.029399,0.13274,0.093686,0.1054,0.067306,0.035229
0.029399,0.13274,0.093686,0.10835,0.063678,0.033838
0.029399,0.13274,0.093686,0.11111,0.059805,0.032728
0.029399,0.13274,0.093686,0.11361,0.055827,0.031882
0.029399,0.13274,0.093686,0.11581,0.051826,0.031323
